<?xml version="1.0" encoding="UTF-8"?>
<!DOCTYPE svg PUBLIC "-//W3C//DTD SVG 1.1//EN" "http://www.w3.org/Graphics/SVG/1.1/DTD/svg11.dtd">
<svg version="1.2" xmlns="http://www.w3.org/2000/svg" xmlns:xlink="http://www.w3.org/1999/xlink" width="0.8in" height="0.4in" viewBox="0 0 80 40">
	<defs>
		<polyline id="pin-template" points="0,0 20,0"/>
		<circle id="terminal-template" cx="0" cy="0" r="0.001"/>
	</defs>
	<g id="schematic">
		<g fill="none" stroke-width="1">
			<rect fill="#FFFFFF" stroke="#000000" x="20" y="0" width="40" height="40"/>
			<g stroke="#787878" stroke-linecap="round">
				<g transform="translate(0,10)">
					<g transform="translate(0,0)">
						<use id="connector-vin--pin" xlink:href="#pin-template"/>
						<use id="connector-vin--terminal" xlink:href="terminal-template"/>
					</g>
					<g transform="translate(0,10)">
						<use id="connector-vout--pin" xlink:href="#pin-template"/>
						<use id="connector-vout--terminal" xlink:href="terminal-template"/>
					</g>
					<g transform="translate(0,20)">
						<use id="connector-bat--pin" xlink:href="#pin-template"/>
						<use id="connector-bat--terminal" xlink:href="terminal-template"/>
					</g>
				</g>
				<g transform="scale(-1,1) translate(-80,10)">
					<g transform="translate(0,0)">
						<use id="connector-vin+-pin" xlink:href="#pin-template"/>
						<use id="connector-vin+-terminal" xlink:href="terminal-template"/>
					</g>
					<g transform="translate(0,10)">
						<use id="connector-vout+-pin" xlink:href="#pin-template"/>
						<use id="connector-vout+-terminal" xlink:href="terminal-template"/>
					</g>
					<g transform="translate(0,20)">
						<use id="connector-bat+-pin" xlink:href="#pin-template"/>
						<use id="connector-bat+-terminal" xlink:href="terminal-template"/>
					</g>
				</g>
			</g>
		</g>
		<g font-family="OCRA std" text-anchor="middle">
			<text x="40" y="22" font-size="5">03962A</text>
			<g transform="translate(0,8)" font-size="3">
				<g transform="translate(10,0)">
					<text x="0" y="0">VIN-</text>
					<text x="0" y="10">VOUT-</text>
					<text x="0" y="20">BAT-</text>
				</g>
				<g transform="translate(70,0)">
					<text x="0" y="0">VIN+</text>
					<text x="0" y="10">VOUT+</text>
					<text x="0" y="20">BAT+</text>
				</g>
			</g>
		</g>
	</g>
</svg>