<?xml version="1.0" encoding="UTF-8"?>
<!DOCTYPE svg PUBLIC "-//W3C//DTD SVG 1.1//EN" "http://www.w3.org/Graphics/SVG/1.1/DTD/svg11.dtd">
<svg version="1.2" xmlns="http://www.w3.org/2000/svg" width="0.75in" height="3in" viewBox="0 0 75 300">
	<g id="breadboard">
		<rect x="0" y="0" width="75" height="300" fill="#000000" stroke="none"/>
		<g>
			<rect transform="translate(0,0)" x="6.25" y="6.25" width="62.5" height="287.5" fill="none" stroke="#444444" stroke-width="1.5625"/>
		</g>
		<g transform="scale(1,-1) translate(0,-300)">
			<g transform="translate(0,0)">
				<circle id="connector-k-0-pin" cx="37.5" cy="9.375" r="1.5625" opacity="0"/>
				<rect x="25" y="0" width="25" height="18.75" fill="#888888"/>
				<circle cx="37.5" cy="40.625" r="6.25" fill="#FFFFFF" stroke="#444444" stroke-width="1.5625"/>
				<circle cx="37.5" cy="59.375" r="6.25" fill="none" stroke="#444444" stroke-width="1.5625"/>
				<text x="37.5" y="67.1875" text-anchor="middle" font-size="19.75" font-family="OCRA std" fill="#444444">-</text>
			</g>
		</g>
		<g>
			<g transform="translate(0,0)">
				<circle id="connector-a-0-pin" cx="37.5" cy="9.375" r="1.5625" opacity="0"/>
				<rect x="25" y="0" width="25" height="18.75" fill="#888888"/>
				<circle cx="37.5" cy="40.625" r="6.25" fill="#FFFFFF" stroke="#444444" stroke-width="1.5625"/>
				<circle cx="37.5" cy="59.375" r="6.25" fill="none" stroke="#444444" stroke-width="1.5625"/>
				<text x="37.5" y="67.1875" text-anchor="middle" font-size="19.75" font-family="OCRA std" fill="#444444">+</text>
			</g>
		</g>
		<rect x="0" y="0" width="75" height="300" fill="none" stroke="#444444" stroke-width="6.25"/>
	</g>
</svg>