<?xml version="1.0" encoding="UTF-8"?>
<!DOCTYPE svg PUBLIC "-//W3C//DTD SVG 1.1//EN" "http://www.w3.org/Graphics/SVG/1.1/DTD/svg11.dtd">
<svg xmlns="http://www.w3.org/2000/svg" version="1.2" width="0.18836in" height="0.24827in" viewBox="0 0 18.836 24.827" >
	<g id="breadboard">
		<g fill="none" transform="translate(0,14.826)">
			<rect id="connector-0-pin" x="2.919" y="0" width="3" height="1"/>
			<rect id="connector-1-pin" x="2.919" y="0" width="3" height="1" transform="scale(-1,1) translate(-18.836,0)"/>
		</g>
		<g stroke-linecap="round" fill="none" transform="translate(0,24.827)">
			<line id="connector-0-leg" x1="4.41" y1="0" x2="4.41" y2="3" stroke="#8C8C8C" stroke-width="3"/>
			<line id="connector-1-leg" x1="4.41" y1="0" x2="4.41" y2="3" stroke="#8C8C8C" stroke-width="3" transform="scale(-1,1) translate(-18.836,0)"/>
		</g>
		<g>
			<g fill="#8C8C8C">
				<path d="M4.02,18.675C3.292,17.963,2.985,17.145,3,16.73c0.022-1.325,0.2-2.381,1.354-3.563
				c1.5-1.5,2.874-2.875,2.874-2.875L5.107,8.171c-0.004,0.002-1.376,1.375-2.876,2.874c-1.849,1.817-2.253,4.012-2.23,5.686
				c0.018,1.504,0.747,2.904,1.897,4.066c0.11,0.072,0.49,0.775,0.686,1.59c0.216,0.819,0.337,1.774,0.335,2.44v0h3v-0
				c-0.002-0.985-0.151-2.115-0.434-3.201C5.18,20.539,4.828,19.52,4.02,18.675z"/>
				<path d="M4.02,18.675C3.292,17.963,2.985,17.145,3,16.73c0.022-1.325,0.2-2.381,1.354-3.563
				c1.5-1.5,2.874-2.875,2.874-2.875L5.107,8.171c-0.004,0.002-1.376,1.375-2.876,2.874c-1.849,1.817-2.253,4.012-2.23,5.686
				c0.018,1.504,0.747,2.904,1.897,4.066c0.11,0.072,0.49,0.775,0.686,1.59c0.216,0.819,0.337,1.774,0.335,2.44v0h3v-0
				c-0.002-0.985-0.151-2.115-0.434-3.201C5.18,20.539,4.828,19.52,4.02,18.675z" transform="scale(-1,1) translate(-18.836,0)"/>
			</g>
			<g>
				<path fill="#165696" d="M17.731,11.986c-0.699-0.856-1.646-2.049-1.646-3.923V2.375C16.085,0.708,15.214,0,13.981,0
				c-1.729,0-2.25,0.604-4.125,0.604H8.981C7.106,0.604,6.585,0,4.856,0C3.623,0,2.752,0.708,2.752,2.375v5.688
				c0,1.874-1.001,2.939-1.646,3.84c-0.562,0.781-1,1.91-1,2.473c1.396-0.604,2.5-0.25,3.312,0.562
				c1.125-1.688,3.125-3.236,4.875-3.236h2.25c1.75,0,3.75,1.549,4.875,3.236c0.812-0.812,1.915-1.166,3.312-0.562
				C18.731,13.813,18.513,12.944,17.731,11.986z"/>
				<path opacity="0.15" d="M18.731,14.375c0-0.562-0.222-1.432-1-2.39
				c-0.699-0.856-1.646-2.049-1.646-3.923V2.375c0-0.871-0.241-1.474-0.645-1.854c-0.003,0.028-0.021,0.058-0.021,0.09
				c0,0.281,0.221,0.531,0.281,0.844c0.074,0.373-0.094,1-0.375,1.531c-0.281,0.531-1,1.656-1,2.656c0,1.153,0.219,2.219,0.531,2.969
				c0.297,0.712,0.844,1.625,1.594,2.344c0.75,0.719,1,1.594,1.062,1.938c0.062,0.344-0.153,0.594-0.594,0.812
				c-0.438,0.218-1.22,0.156-1.562,0.031c-0.346-0.125-1.125-0.812-1.472-1.25c-0.344-0.438-0.719-1.188-1.25-1.812
				c-0.5-0.588-1.625-1.403-3.125-1.403S6.54,10.299,5.79,11.049s-1.281,1.722-1.562,2c-0.281,0.281-0.656,0.597-1.031,0.656
				c-0.375,0.062-0.75-0.125-1.062-0.125c-0.258,0-0.495,0.143-0.765,0.503c0.816-0.023,1.5,0.307,2.048,0.855
				c1.125-1.688,3.125-3.236,4.875-3.236h2.25c1.75,0,3.75,1.549,4.875,3.236C16.231,14.125,17.334,13.772,18.731,14.375z"/>
			</g>
			<g opacity="0.3" fill="#FFFFFF">
				<path d="M5.628,2.006c0,0.514-0.738,1.047-1.048,1.047
				c-0.562,0-0.898-0.573-0.898-1.141c0-0.562,0.455-1.021,1.021-1.021C5.265,0.892,5.628,1.443,5.628,2.006z"/>
				<path d="M1.274,12.944c0-0.271,0.083-0.604,0.271-0.854
				c0.258-0.344,0.82-0.896,1.083-1.271c0.292-0.416,0.396-0.791,0.459-1.146C3.14,9.385,3.349,9.048,3.566,9.048
				s0.417,0.347,0.417,0.688c0,0.341-0.1,0.771-0.354,1.188c-0.271,0.438-0.729,0.833-1.062,1.104
				c-0.338,0.273-0.564,0.603-0.647,0.812c-0.054,0.139-0.188,0.333-0.396,0.333C1.297,13.173,1.274,13.065,1.274,12.944z"/>
				<path d="M12.107,1.257c0-0.444,0.438-0.646,0.791-0.688
				c0.541-0.062,0.959-0.125,1.334-0.125s0.666,0.073,0.666,0.292c0,0.219-0.358,0.271-0.688,0.271s-0.874,0.114-1.124,0.208
				c-0.25,0.097-0.354,0.417-0.604,0.417C12.253,1.632,12.107,1.465,12.107,1.257z"/>
			</g>
		</g>
		<text fill="#FFFFFF" x="9.418" y="7.06" font-size="2.54" font-family="OCRA std" text-anchor="middle">22pF</text>
	</g>
</svg>