<?xml version="1.0" encoding="UTF-8"?>
<!-- Generator: Adobe Illustrator 15.1.0, SVG Export Plug-In . SVG Version: 6.00 Build 0) -->
<!DOCTYPE svg PUBLIC "-//W3C//DTD SVG 1.1//EN" "http://www.w3.org/Graphics/SVG/1.1/DTD/svg11.dtd">
<svg xmlns="http://www.w3.org/2000/svg" version="1.2" width="205.872px" height="26.699px" viewBox="0 0 205.872 26.699">
	<g id="breadboard">
		<g>
			<g>
				<rect fill="#0071BC" x="0" y="0" width="205.872" height="21.795"/>
				<g opacity="0.2">
					<g fill="#FFFFFF">
						<rect x="0" y="15.773" width="0.288" height="6.021"/>
						<rect x="0" y="0" width="0.288" height="5.063"/>
						<rect x="0" y="0" width="8.828" height="0.288"/>
					</g>
					<rect x="0" y="6.412" width="0.288" height="3.452"/>
					<g transform="scale(-1,1) translate(-205.872,0)">
						<rect x="0" y="0" width="0.288" height="6.412"/>
						<rect x="0" y="6.412" width="0.288" height="3.452"/>
						<rect x="0" y="16.732" width="0.288" height="5.063"/>
						<rect x="0" y="21.506" width="8.828" height="0.288"/>
					</g>
				</g>
				<rect fill="#07466F" x="0" y="6.412" width="1.728" height="9.361"/>
				<rect fill="#333333" x="0" y="9.864" width="1.728" height="5.909"/>
				<g transform="scale(-1,1) translate(-205.872,0)">
					<rect fill="#07466F" x="0" y="6.412" width="1.728" height="9.361"/>
					<rect fill="#333333" x="0" y="9.864" width="1.728" height="5.909"/>
				</g>
				<text fill="#FFFFFF" x="102" y="4.75" font-family="OCRA std" font-size="5" text-anchor="middle">ON</text>
			</g>
			<g>
				<rect fill="#07466F" x="0" y="21.795" width="205.872" height="5.063"/>
				<rect fill="#FFFFFF" opacity="0.2" y="21.795" width="0.288" height="5.041"/>
				<g opacity="0.2" transform="scale(-1,1) translate(-205.872,0)">
					<rect x="0" y="21.795" width="0.288" height="5.063"/>
					<rect x="0" y="26.57" width="13.96" height="0.288"/>
				</g>
			</g>
		</g>
		<g>
			<g transform="translate(0,0)">
				<g>
					<rect fill="#E6E6E6" x="3.888" y="5.497" width="4.32" height="10.802"/>
					<rect fill="#CCCCCC" x="4.968" y="6.794" width="2.16" height="8.751"/>
					<rect fill="#B3B3B3" x="4.968" y="6.794" width="2.16" height="0.221"/>
					<rect fill="#07466F" x="3.888" y="5.497" width="4.32" height="0.714"/>
					<g fill="#FFFFFF" opacity="0.2">
						<rect x="4.799" y="6.794" width="0.169" height="8.751"/>
						<rect x="3.69" y="5.497" width="0.198" height="10.802"/>
					</g>
				</g>
				<g transform="translate(0,5.17)">
					<g>
						<rect fill="#B3B3B3" x="4.608" y="5.68" width="2.88" height="4.729"/>
						<g opacity="0.2">
							<rect x="7.294" y="8.813" width="0.194" height="1.596"/>
							<rect x="5.699" y="10.213" width="1.595" height="0.193"/>
						</g>
					</g>
					<g>
						<rect fill="#F2F2F2" x="4.608" y="5.68" width="2.88" height="1.128"/>
						<rect x="7.298" y="7.277" opacity="0.11" width="0.194" height="1.331"/>
						<rect x="5.704" y="8.412" opacity="0.11" width="1.594" height="0.194"/>
						<g fill="#FFFFFF">
							<rect x="4.604" y="7.083" width="0.194" height="1.33"/>
							<rect x="4.799" y="7.082" width="1.594" height="0.194"/>
						</g>
					</g>
					<g>
						<rect fill="#F2F2F2" x="4.608" y="7.083" width="2.88" height="1.524"/>
						<g opacity="0.11">
							<rect x="7.298" y="5.666" width="0.194" height="1.143"/>
							<rect x="5.704" y="6.613" width="1.594" height="0.193"/>
						</g>
						<g fill="#FFFFFF">
							<rect x="4.604" y="5.68" width="0.194" height="1.105"/>
							<rect x="4.799" y="5.729" width="1.594" height="0.192"/>
						</g>
					</g>
				</g>
				<text fill="#FFFFFF" x="6" y="20.25" font-family="OCRA std" font-size="3" text-anchor="middle">1</text>
			</g>
			<g transform="translate(7.2,0)">
				<g>
					<rect fill="#E6E6E6" x="3.888" y="5.497" width="4.32" height="10.802"/>
					<rect fill="#CCCCCC" x="4.968" y="6.794" width="2.16" height="8.751"/>
					<rect fill="#B3B3B3" x="4.968" y="6.794" width="2.16" height="0.221"/>
					<rect fill="#07466F" x="3.888" y="5.497" width="4.32" height="0.714"/>
					<g fill="#FFFFFF" opacity="0.2">
						<rect x="4.799" y="6.794" width="0.169" height="8.751"/>
						<rect x="3.69" y="5.497" width="0.198" height="10.802"/>
					</g>
				</g>
				<g transform="translate(0,5.17)">
					<g>
						<rect fill="#B3B3B3" x="4.608" y="5.68" width="2.88" height="4.729"/>
						<g opacity="0.2">
							<rect x="7.294" y="8.813" width="0.194" height="1.596"/>
							<rect x="5.699" y="10.213" width="1.595" height="0.193"/>
						</g>
					</g>
					<g>
						<rect fill="#F2F2F2" x="4.608" y="5.68" width="2.88" height="1.128"/>
						<rect x="7.298" y="7.277" opacity="0.11" width="0.194" height="1.331"/>
						<rect x="5.704" y="8.412" opacity="0.11" width="1.594" height="0.194"/>
						<g fill="#FFFFFF">
							<rect x="4.604" y="7.083" width="0.194" height="1.33"/>
							<rect x="4.799" y="7.082" width="1.594" height="0.194"/>
						</g>
					</g>
					<g>
						<rect fill="#F2F2F2" x="4.608" y="7.083" width="2.88" height="1.524"/>
						<g opacity="0.11">
							<rect x="7.298" y="5.666" width="0.194" height="1.143"/>
							<rect x="5.704" y="6.613" width="1.594" height="0.193"/>
						</g>
						<g fill="#FFFFFF">
							<rect x="4.604" y="5.68" width="0.194" height="1.105"/>
							<rect x="4.799" y="5.729" width="1.594" height="0.192"/>
						</g>
					</g>
				</g>
				<text fill="#FFFFFF" x="6" y="20.25" font-family="OCRA std" font-size="3" text-anchor="middle">2</text>
			</g>
			<g transform="translate(14.4,0)">
				<g>
					<rect fill="#E6E6E6" x="3.888" y="5.497" width="4.32" height="10.802"/>
					<rect fill="#CCCCCC" x="4.968" y="6.794" width="2.16" height="8.751"/>
					<rect fill="#B3B3B3" x="4.968" y="6.794" width="2.16" height="0.221"/>
					<rect fill="#07466F" x="3.888" y="5.497" width="4.32" height="0.714"/>
					<g fill="#FFFFFF" opacity="0.2">
						<rect x="4.799" y="6.794" width="0.169" height="8.751"/>
						<rect x="3.69" y="5.497" width="0.198" height="10.802"/>
					</g>
				</g>
				<g transform="translate(0,5.17)">
					<g>
						<rect fill="#B3B3B3" x="4.608" y="5.68" width="2.88" height="4.729"/>
						<g opacity="0.2">
							<rect x="7.294" y="8.813" width="0.194" height="1.596"/>
							<rect x="5.699" y="10.213" width="1.595" height="0.193"/>
						</g>
					</g>
					<g>
						<rect fill="#F2F2F2" x="4.608" y="5.68" width="2.88" height="1.128"/>
						<rect x="7.298" y="7.277" opacity="0.11" width="0.194" height="1.331"/>
						<rect x="5.704" y="8.412" opacity="0.11" width="1.594" height="0.194"/>
						<g fill="#FFFFFF">
							<rect x="4.604" y="7.083" width="0.194" height="1.33"/>
							<rect x="4.799" y="7.082" width="1.594" height="0.194"/>
						</g>
					</g>
					<g>
						<rect fill="#F2F2F2" x="4.608" y="7.083" width="2.88" height="1.524"/>
						<g opacity="0.11">
							<rect x="7.298" y="5.666" width="0.194" height="1.143"/>
							<rect x="5.704" y="6.613" width="1.594" height="0.193"/>
						</g>
						<g fill="#FFFFFF">
							<rect x="4.604" y="5.68" width="0.194" height="1.105"/>
							<rect x="4.799" y="5.729" width="1.594" height="0.192"/>
						</g>
					</g>
				</g>
				<text fill="#FFFFFF" x="6" y="20.25" font-family="OCRA std" font-size="3" text-anchor="middle">3</text>
			</g>
			<g transform="translate(21.6,0)">
				<g>
					<rect fill="#E6E6E6" x="3.888" y="5.497" width="4.32" height="10.802"/>
					<rect fill="#CCCCCC" x="4.968" y="6.794" width="2.16" height="8.751"/>
					<rect fill="#B3B3B3" x="4.968" y="6.794" width="2.16" height="0.221"/>
					<rect fill="#07466F" x="3.888" y="5.497" width="4.32" height="0.714"/>
					<g fill="#FFFFFF" opacity="0.2">
						<rect x="4.799" y="6.794" width="0.169" height="8.751"/>
						<rect x="3.69" y="5.497" width="0.198" height="10.802"/>
					</g>
				</g>
				<g transform="translate(0,5.17)">
					<g>
						<rect fill="#B3B3B3" x="4.608" y="5.68" width="2.88" height="4.729"/>
						<g opacity="0.2">
							<rect x="7.294" y="8.813" width="0.194" height="1.596"/>
							<rect x="5.699" y="10.213" width="1.595" height="0.193"/>
						</g>
					</g>
					<g>
						<rect fill="#F2F2F2" x="4.608" y="5.68" width="2.88" height="1.128"/>
						<rect x="7.298" y="7.277" opacity="0.11" width="0.194" height="1.331"/>
						<rect x="5.704" y="8.412" opacity="0.11" width="1.594" height="0.194"/>
						<g fill="#FFFFFF">
							<rect x="4.604" y="7.083" width="0.194" height="1.33"/>
							<rect x="4.799" y="7.082" width="1.594" height="0.194"/>
						</g>
					</g>
					<g>
						<rect fill="#F2F2F2" x="4.608" y="7.083" width="2.88" height="1.524"/>
						<g opacity="0.11">
							<rect x="7.298" y="5.666" width="0.194" height="1.143"/>
							<rect x="5.704" y="6.613" width="1.594" height="0.193"/>
						</g>
						<g fill="#FFFFFF">
							<rect x="4.604" y="5.68" width="0.194" height="1.105"/>
							<rect x="4.799" y="5.729" width="1.594" height="0.192"/>
						</g>
					</g>
				</g>
				<text fill="#FFFFFF" x="6" y="20.25" font-family="OCRA std" font-size="3" text-anchor="middle">4</text>
			</g>
			<g transform="translate(28.8,0)">
				<g>
					<rect fill="#E6E6E6" x="3.888" y="5.497" width="4.32" height="10.802"/>
					<rect fill="#CCCCCC" x="4.968" y="6.794" width="2.16" height="8.751"/>
					<rect fill="#B3B3B3" x="4.968" y="6.794" width="2.16" height="0.221"/>
					<rect fill="#07466F" x="3.888" y="5.497" width="4.32" height="0.714"/>
					<g fill="#FFFFFF" opacity="0.2">
						<rect x="4.799" y="6.794" width="0.169" height="8.751"/>
						<rect x="3.69" y="5.497" width="0.198" height="10.802"/>
					</g>
				</g>
				<g transform="translate(0,5.17)">
					<g>
						<rect fill="#B3B3B3" x="4.608" y="5.68" width="2.88" height="4.729"/>
						<g opacity="0.2">
							<rect x="7.294" y="8.813" width="0.194" height="1.596"/>
							<rect x="5.699" y="10.213" width="1.595" height="0.193"/>
						</g>
					</g>
					<g>
						<rect fill="#F2F2F2" x="4.608" y="5.68" width="2.88" height="1.128"/>
						<rect x="7.298" y="7.277" opacity="0.11" width="0.194" height="1.331"/>
						<rect x="5.704" y="8.412" opacity="0.11" width="1.594" height="0.194"/>
						<g fill="#FFFFFF">
							<rect x="4.604" y="7.083" width="0.194" height="1.33"/>
							<rect x="4.799" y="7.082" width="1.594" height="0.194"/>
						</g>
					</g>
					<g>
						<rect fill="#F2F2F2" x="4.608" y="7.083" width="2.88" height="1.524"/>
						<g opacity="0.11">
							<rect x="7.298" y="5.666" width="0.194" height="1.143"/>
							<rect x="5.704" y="6.613" width="1.594" height="0.193"/>
						</g>
						<g fill="#FFFFFF">
							<rect x="4.604" y="5.68" width="0.194" height="1.105"/>
							<rect x="4.799" y="5.729" width="1.594" height="0.192"/>
						</g>
					</g>
				</g>
				<text fill="#FFFFFF" x="6" y="20.25" font-family="OCRA std" font-size="3" text-anchor="middle">5</text>
			</g>
			<g transform="translate(36.0,0)">
				<g>
					<rect fill="#E6E6E6" x="3.888" y="5.497" width="4.32" height="10.802"/>
					<rect fill="#CCCCCC" x="4.968" y="6.794" width="2.16" height="8.751"/>
					<rect fill="#B3B3B3" x="4.968" y="6.794" width="2.16" height="0.221"/>
					<rect fill="#07466F" x="3.888" y="5.497" width="4.32" height="0.714"/>
					<g fill="#FFFFFF" opacity="0.2">
						<rect x="4.799" y="6.794" width="0.169" height="8.751"/>
						<rect x="3.69" y="5.497" width="0.198" height="10.802"/>
					</g>
				</g>
				<g transform="translate(0,5.17)">
					<g>
						<rect fill="#B3B3B3" x="4.608" y="5.68" width="2.88" height="4.729"/>
						<g opacity="0.2">
							<rect x="7.294" y="8.813" width="0.194" height="1.596"/>
							<rect x="5.699" y="10.213" width="1.595" height="0.193"/>
						</g>
					</g>
					<g>
						<rect fill="#F2F2F2" x="4.608" y="5.68" width="2.88" height="1.128"/>
						<rect x="7.298" y="7.277" opacity="0.11" width="0.194" height="1.331"/>
						<rect x="5.704" y="8.412" opacity="0.11" width="1.594" height="0.194"/>
						<g fill="#FFFFFF">
							<rect x="4.604" y="7.083" width="0.194" height="1.33"/>
							<rect x="4.799" y="7.082" width="1.594" height="0.194"/>
						</g>
					</g>
					<g>
						<rect fill="#F2F2F2" x="4.608" y="7.083" width="2.88" height="1.524"/>
						<g opacity="0.11">
							<rect x="7.298" y="5.666" width="0.194" height="1.143"/>
							<rect x="5.704" y="6.613" width="1.594" height="0.193"/>
						</g>
						<g fill="#FFFFFF">
							<rect x="4.604" y="5.68" width="0.194" height="1.105"/>
							<rect x="4.799" y="5.729" width="1.594" height="0.192"/>
						</g>
					</g>
				</g>
				<text fill="#FFFFFF" x="6" y="20.25" font-family="OCRA std" font-size="3" text-anchor="middle">6</text>
			</g>
			<g transform="translate(43.2,0)">
				<g>
					<rect fill="#E6E6E6" x="3.888" y="5.497" width="4.32" height="10.802"/>
					<rect fill="#CCCCCC" x="4.968" y="6.794" width="2.16" height="8.751"/>
					<rect fill="#B3B3B3" x="4.968" y="6.794" width="2.16" height="0.221"/>
					<rect fill="#07466F" x="3.888" y="5.497" width="4.32" height="0.714"/>
					<g fill="#FFFFFF" opacity="0.2">
						<rect x="4.799" y="6.794" width="0.169" height="8.751"/>
						<rect x="3.69" y="5.497" width="0.198" height="10.802"/>
					</g>
				</g>
				<g transform="translate(0,5.17)">
					<g>
						<rect fill="#B3B3B3" x="4.608" y="5.68" width="2.88" height="4.729"/>
						<g opacity="0.2">
							<rect x="7.294" y="8.813" width="0.194" height="1.596"/>
							<rect x="5.699" y="10.213" width="1.595" height="0.193"/>
						</g>
					</g>
					<g>
						<rect fill="#F2F2F2" x="4.608" y="5.68" width="2.88" height="1.128"/>
						<rect x="7.298" y="7.277" opacity="0.11" width="0.194" height="1.331"/>
						<rect x="5.704" y="8.412" opacity="0.11" width="1.594" height="0.194"/>
						<g fill="#FFFFFF">
							<rect x="4.604" y="7.083" width="0.194" height="1.33"/>
							<rect x="4.799" y="7.082" width="1.594" height="0.194"/>
						</g>
					</g>
					<g>
						<rect fill="#F2F2F2" x="4.608" y="7.083" width="2.88" height="1.524"/>
						<g opacity="0.11">
							<rect x="7.298" y="5.666" width="0.194" height="1.143"/>
							<rect x="5.704" y="6.613" width="1.594" height="0.193"/>
						</g>
						<g fill="#FFFFFF">
							<rect x="4.604" y="5.68" width="0.194" height="1.105"/>
							<rect x="4.799" y="5.729" width="1.594" height="0.192"/>
						</g>
					</g>
				</g>
				<text fill="#FFFFFF" x="6" y="20.25" font-family="OCRA std" font-size="3" text-anchor="middle">7</text>
			</g>
			<g transform="translate(50.4,0)">
				<g>
					<rect fill="#E6E6E6" x="3.888" y="5.497" width="4.32" height="10.802"/>
					<rect fill="#CCCCCC" x="4.968" y="6.794" width="2.16" height="8.751"/>
					<rect fill="#B3B3B3" x="4.968" y="6.794" width="2.16" height="0.221"/>
					<rect fill="#07466F" x="3.888" y="5.497" width="4.32" height="0.714"/>
					<g fill="#FFFFFF" opacity="0.2">
						<rect x="4.799" y="6.794" width="0.169" height="8.751"/>
						<rect x="3.69" y="5.497" width="0.198" height="10.802"/>
					</g>
				</g>
				<g transform="translate(0,5.17)">
					<g>
						<rect fill="#B3B3B3" x="4.608" y="5.68" width="2.88" height="4.729"/>
						<g opacity="0.2">
							<rect x="7.294" y="8.813" width="0.194" height="1.596"/>
							<rect x="5.699" y="10.213" width="1.595" height="0.193"/>
						</g>
					</g>
					<g>
						<rect fill="#F2F2F2" x="4.608" y="5.68" width="2.88" height="1.128"/>
						<rect x="7.298" y="7.277" opacity="0.11" width="0.194" height="1.331"/>
						<rect x="5.704" y="8.412" opacity="0.11" width="1.594" height="0.194"/>
						<g fill="#FFFFFF">
							<rect x="4.604" y="7.083" width="0.194" height="1.33"/>
							<rect x="4.799" y="7.082" width="1.594" height="0.194"/>
						</g>
					</g>
					<g>
						<rect fill="#F2F2F2" x="4.608" y="7.083" width="2.88" height="1.524"/>
						<g opacity="0.11">
							<rect x="7.298" y="5.666" width="0.194" height="1.143"/>
							<rect x="5.704" y="6.613" width="1.594" height="0.193"/>
						</g>
						<g fill="#FFFFFF">
							<rect x="4.604" y="5.68" width="0.194" height="1.105"/>
							<rect x="4.799" y="5.729" width="1.594" height="0.192"/>
						</g>
					</g>
				</g>
				<text fill="#FFFFFF" x="6" y="20.25" font-family="OCRA std" font-size="3" text-anchor="middle">8</text>
			</g>
			<g transform="translate(57.6,0)">
				<g>
					<rect fill="#E6E6E6" x="3.888" y="5.497" width="4.32" height="10.802"/>
					<rect fill="#CCCCCC" x="4.968" y="6.794" width="2.16" height="8.751"/>
					<rect fill="#B3B3B3" x="4.968" y="6.794" width="2.16" height="0.221"/>
					<rect fill="#07466F" x="3.888" y="5.497" width="4.32" height="0.714"/>
					<g fill="#FFFFFF" opacity="0.2">
						<rect x="4.799" y="6.794" width="0.169" height="8.751"/>
						<rect x="3.69" y="5.497" width="0.198" height="10.802"/>
					</g>
				</g>
				<g transform="translate(0,5.17)">
					<g>
						<rect fill="#B3B3B3" x="4.608" y="5.68" width="2.88" height="4.729"/>
						<g opacity="0.2">
							<rect x="7.294" y="8.813" width="0.194" height="1.596"/>
							<rect x="5.699" y="10.213" width="1.595" height="0.193"/>
						</g>
					</g>
					<g>
						<rect fill="#F2F2F2" x="4.608" y="5.68" width="2.88" height="1.128"/>
						<rect x="7.298" y="7.277" opacity="0.11" width="0.194" height="1.331"/>
						<rect x="5.704" y="8.412" opacity="0.11" width="1.594" height="0.194"/>
						<g fill="#FFFFFF">
							<rect x="4.604" y="7.083" width="0.194" height="1.33"/>
							<rect x="4.799" y="7.082" width="1.594" height="0.194"/>
						</g>
					</g>
					<g>
						<rect fill="#F2F2F2" x="4.608" y="7.083" width="2.88" height="1.524"/>
						<g opacity="0.11">
							<rect x="7.298" y="5.666" width="0.194" height="1.143"/>
							<rect x="5.704" y="6.613" width="1.594" height="0.193"/>
						</g>
						<g fill="#FFFFFF">
							<rect x="4.604" y="5.68" width="0.194" height="1.105"/>
							<rect x="4.799" y="5.729" width="1.594" height="0.192"/>
						</g>
					</g>
				</g>
				<text fill="#FFFFFF" x="6" y="20.25" font-family="OCRA std" font-size="3" text-anchor="middle">9</text>
			</g>
			<g transform="translate(64.8,0)">
				<g>
					<rect fill="#E6E6E6" x="3.888" y="5.497" width="4.32" height="10.802"/>
					<rect fill="#CCCCCC" x="4.968" y="6.794" width="2.16" height="8.751"/>
					<rect fill="#B3B3B3" x="4.968" y="6.794" width="2.16" height="0.221"/>
					<rect fill="#07466F" x="3.888" y="5.497" width="4.32" height="0.714"/>
					<g fill="#FFFFFF" opacity="0.2">
						<rect x="4.799" y="6.794" width="0.169" height="8.751"/>
						<rect x="3.69" y="5.497" width="0.198" height="10.802"/>
					</g>
				</g>
				<g transform="translate(0,5.17)">
					<g>
						<rect fill="#B3B3B3" x="4.608" y="5.68" width="2.88" height="4.729"/>
						<g opacity="0.2">
							<rect x="7.294" y="8.813" width="0.194" height="1.596"/>
							<rect x="5.699" y="10.213" width="1.595" height="0.193"/>
						</g>
					</g>
					<g>
						<rect fill="#F2F2F2" x="4.608" y="5.68" width="2.88" height="1.128"/>
						<rect x="7.298" y="7.277" opacity="0.11" width="0.194" height="1.331"/>
						<rect x="5.704" y="8.412" opacity="0.11" width="1.594" height="0.194"/>
						<g fill="#FFFFFF">
							<rect x="4.604" y="7.083" width="0.194" height="1.33"/>
							<rect x="4.799" y="7.082" width="1.594" height="0.194"/>
						</g>
					</g>
					<g>
						<rect fill="#F2F2F2" x="4.608" y="7.083" width="2.88" height="1.524"/>
						<g opacity="0.11">
							<rect x="7.298" y="5.666" width="0.194" height="1.143"/>
							<rect x="5.704" y="6.613" width="1.594" height="0.193"/>
						</g>
						<g fill="#FFFFFF">
							<rect x="4.604" y="5.68" width="0.194" height="1.105"/>
							<rect x="4.799" y="5.729" width="1.594" height="0.192"/>
						</g>
					</g>
				</g>
				<text fill="#FFFFFF" x="6" y="20.25" font-family="OCRA std" font-size="3" text-anchor="middle">10</text>
			</g>
			<g transform="translate(72.0,0)">
				<g>
					<rect fill="#E6E6E6" x="3.888" y="5.497" width="4.32" height="10.802"/>
					<rect fill="#CCCCCC" x="4.968" y="6.794" width="2.16" height="8.751"/>
					<rect fill="#B3B3B3" x="4.968" y="6.794" width="2.16" height="0.221"/>
					<rect fill="#07466F" x="3.888" y="5.497" width="4.32" height="0.714"/>
					<g fill="#FFFFFF" opacity="0.2">
						<rect x="4.799" y="6.794" width="0.169" height="8.751"/>
						<rect x="3.69" y="5.497" width="0.198" height="10.802"/>
					</g>
				</g>
				<g transform="translate(0,5.17)">
					<g>
						<rect fill="#B3B3B3" x="4.608" y="5.68" width="2.88" height="4.729"/>
						<g opacity="0.2">
							<rect x="7.294" y="8.813" width="0.194" height="1.596"/>
							<rect x="5.699" y="10.213" width="1.595" height="0.193"/>
						</g>
					</g>
					<g>
						<rect fill="#F2F2F2" x="4.608" y="5.68" width="2.88" height="1.128"/>
						<rect x="7.298" y="7.277" opacity="0.11" width="0.194" height="1.331"/>
						<rect x="5.704" y="8.412" opacity="0.11" width="1.594" height="0.194"/>
						<g fill="#FFFFFF">
							<rect x="4.604" y="7.083" width="0.194" height="1.33"/>
							<rect x="4.799" y="7.082" width="1.594" height="0.194"/>
						</g>
					</g>
					<g>
						<rect fill="#F2F2F2" x="4.608" y="7.083" width="2.88" height="1.524"/>
						<g opacity="0.11">
							<rect x="7.298" y="5.666" width="0.194" height="1.143"/>
							<rect x="5.704" y="6.613" width="1.594" height="0.193"/>
						</g>
						<g fill="#FFFFFF">
							<rect x="4.604" y="5.68" width="0.194" height="1.105"/>
							<rect x="4.799" y="5.729" width="1.594" height="0.192"/>
						</g>
					</g>
				</g>
				<text fill="#FFFFFF" x="6" y="20.25" font-family="OCRA std" font-size="3" text-anchor="middle">11</text>
			</g>
			<g transform="translate(79.2,0)">
				<g>
					<rect fill="#E6E6E6" x="3.888" y="5.497" width="4.32" height="10.802"/>
					<rect fill="#CCCCCC" x="4.968" y="6.794" width="2.16" height="8.751"/>
					<rect fill="#B3B3B3" x="4.968" y="6.794" width="2.16" height="0.221"/>
					<rect fill="#07466F" x="3.888" y="5.497" width="4.32" height="0.714"/>
					<g fill="#FFFFFF" opacity="0.2">
						<rect x="4.799" y="6.794" width="0.169" height="8.751"/>
						<rect x="3.69" y="5.497" width="0.198" height="10.802"/>
					</g>
				</g>
				<g transform="translate(0,5.17)">
					<g>
						<rect fill="#B3B3B3" x="4.608" y="5.68" width="2.88" height="4.729"/>
						<g opacity="0.2">
							<rect x="7.294" y="8.813" width="0.194" height="1.596"/>
							<rect x="5.699" y="10.213" width="1.595" height="0.193"/>
						</g>
					</g>
					<g>
						<rect fill="#F2F2F2" x="4.608" y="5.68" width="2.88" height="1.128"/>
						<rect x="7.298" y="7.277" opacity="0.11" width="0.194" height="1.331"/>
						<rect x="5.704" y="8.412" opacity="0.11" width="1.594" height="0.194"/>
						<g fill="#FFFFFF">
							<rect x="4.604" y="7.083" width="0.194" height="1.33"/>
							<rect x="4.799" y="7.082" width="1.594" height="0.194"/>
						</g>
					</g>
					<g>
						<rect fill="#F2F2F2" x="4.608" y="7.083" width="2.88" height="1.524"/>
						<g opacity="0.11">
							<rect x="7.298" y="5.666" width="0.194" height="1.143"/>
							<rect x="5.704" y="6.613" width="1.594" height="0.193"/>
						</g>
						<g fill="#FFFFFF">
							<rect x="4.604" y="5.68" width="0.194" height="1.105"/>
							<rect x="4.799" y="5.729" width="1.594" height="0.192"/>
						</g>
					</g>
				</g>
				<text fill="#FFFFFF" x="6" y="20.25" font-family="OCRA std" font-size="3" text-anchor="middle">12</text>
			</g>
			<g transform="translate(86.4,0)">
				<g>
					<rect fill="#E6E6E6" x="3.888" y="5.497" width="4.32" height="10.802"/>
					<rect fill="#CCCCCC" x="4.968" y="6.794" width="2.16" height="8.751"/>
					<rect fill="#B3B3B3" x="4.968" y="6.794" width="2.16" height="0.221"/>
					<rect fill="#07466F" x="3.888" y="5.497" width="4.32" height="0.714"/>
					<g fill="#FFFFFF" opacity="0.2">
						<rect x="4.799" y="6.794" width="0.169" height="8.751"/>
						<rect x="3.69" y="5.497" width="0.198" height="10.802"/>
					</g>
				</g>
				<g transform="translate(0,5.17)">
					<g>
						<rect fill="#B3B3B3" x="4.608" y="5.68" width="2.88" height="4.729"/>
						<g opacity="0.2">
							<rect x="7.294" y="8.813" width="0.194" height="1.596"/>
							<rect x="5.699" y="10.213" width="1.595" height="0.193"/>
						</g>
					</g>
					<g>
						<rect fill="#F2F2F2" x="4.608" y="5.68" width="2.88" height="1.128"/>
						<rect x="7.298" y="7.277" opacity="0.11" width="0.194" height="1.331"/>
						<rect x="5.704" y="8.412" opacity="0.11" width="1.594" height="0.194"/>
						<g fill="#FFFFFF">
							<rect x="4.604" y="7.083" width="0.194" height="1.33"/>
							<rect x="4.799" y="7.082" width="1.594" height="0.194"/>
						</g>
					</g>
					<g>
						<rect fill="#F2F2F2" x="4.608" y="7.083" width="2.88" height="1.524"/>
						<g opacity="0.11">
							<rect x="7.298" y="5.666" width="0.194" height="1.143"/>
							<rect x="5.704" y="6.613" width="1.594" height="0.193"/>
						</g>
						<g fill="#FFFFFF">
							<rect x="4.604" y="5.68" width="0.194" height="1.105"/>
							<rect x="4.799" y="5.729" width="1.594" height="0.192"/>
						</g>
					</g>
				</g>
				<text fill="#FFFFFF" x="6" y="20.25" font-family="OCRA std" font-size="3" text-anchor="middle">13</text>
			</g>
			<g transform="translate(93.6,0)">
				<g>
					<rect fill="#E6E6E6" x="3.888" y="5.497" width="4.32" height="10.802"/>
					<rect fill="#CCCCCC" x="4.968" y="6.794" width="2.16" height="8.751"/>
					<rect fill="#B3B3B3" x="4.968" y="6.794" width="2.16" height="0.221"/>
					<rect fill="#07466F" x="3.888" y="5.497" width="4.32" height="0.714"/>
					<g fill="#FFFFFF" opacity="0.2">
						<rect x="4.799" y="6.794" width="0.169" height="8.751"/>
						<rect x="3.69" y="5.497" width="0.198" height="10.802"/>
					</g>
				</g>
				<g transform="translate(0,5.17)">
					<g>
						<rect fill="#B3B3B3" x="4.608" y="5.68" width="2.88" height="4.729"/>
						<g opacity="0.2">
							<rect x="7.294" y="8.813" width="0.194" height="1.596"/>
							<rect x="5.699" y="10.213" width="1.595" height="0.193"/>
						</g>
					</g>
					<g>
						<rect fill="#F2F2F2" x="4.608" y="5.68" width="2.88" height="1.128"/>
						<rect x="7.298" y="7.277" opacity="0.11" width="0.194" height="1.331"/>
						<rect x="5.704" y="8.412" opacity="0.11" width="1.594" height="0.194"/>
						<g fill="#FFFFFF">
							<rect x="4.604" y="7.083" width="0.194" height="1.33"/>
							<rect x="4.799" y="7.082" width="1.594" height="0.194"/>
						</g>
					</g>
					<g>
						<rect fill="#F2F2F2" x="4.608" y="7.083" width="2.88" height="1.524"/>
						<g opacity="0.11">
							<rect x="7.298" y="5.666" width="0.194" height="1.143"/>
							<rect x="5.704" y="6.613" width="1.594" height="0.193"/>
						</g>
						<g fill="#FFFFFF">
							<rect x="4.604" y="5.68" width="0.194" height="1.105"/>
							<rect x="4.799" y="5.729" width="1.594" height="0.192"/>
						</g>
					</g>
				</g>
				<text fill="#FFFFFF" x="6" y="20.25" font-family="OCRA std" font-size="3" text-anchor="middle">14</text>
			</g>
			<g transform="translate(100.8,0)">
				<g>
					<rect fill="#E6E6E6" x="3.888" y="5.497" width="4.32" height="10.802"/>
					<rect fill="#CCCCCC" x="4.968" y="6.794" width="2.16" height="8.751"/>
					<rect fill="#B3B3B3" x="4.968" y="6.794" width="2.16" height="0.221"/>
					<rect fill="#07466F" x="3.888" y="5.497" width="4.32" height="0.714"/>
					<g fill="#FFFFFF" opacity="0.2">
						<rect x="4.799" y="6.794" width="0.169" height="8.751"/>
						<rect x="3.69" y="5.497" width="0.198" height="10.802"/>
					</g>
				</g>
				<g transform="translate(0,5.17)">
					<g>
						<rect fill="#B3B3B3" x="4.608" y="5.68" width="2.88" height="4.729"/>
						<g opacity="0.2">
							<rect x="7.294" y="8.813" width="0.194" height="1.596"/>
							<rect x="5.699" y="10.213" width="1.595" height="0.193"/>
						</g>
					</g>
					<g>
						<rect fill="#F2F2F2" x="4.608" y="5.68" width="2.88" height="1.128"/>
						<rect x="7.298" y="7.277" opacity="0.11" width="0.194" height="1.331"/>
						<rect x="5.704" y="8.412" opacity="0.11" width="1.594" height="0.194"/>
						<g fill="#FFFFFF">
							<rect x="4.604" y="7.083" width="0.194" height="1.33"/>
							<rect x="4.799" y="7.082" width="1.594" height="0.194"/>
						</g>
					</g>
					<g>
						<rect fill="#F2F2F2" x="4.608" y="7.083" width="2.88" height="1.524"/>
						<g opacity="0.11">
							<rect x="7.298" y="5.666" width="0.194" height="1.143"/>
							<rect x="5.704" y="6.613" width="1.594" height="0.193"/>
						</g>
						<g fill="#FFFFFF">
							<rect x="4.604" y="5.68" width="0.194" height="1.105"/>
							<rect x="4.799" y="5.729" width="1.594" height="0.192"/>
						</g>
					</g>
				</g>
				<text fill="#FFFFFF" x="6" y="20.25" font-family="OCRA std" font-size="3" text-anchor="middle">15</text>
			</g>
			<g transform="translate(108.0,0)">
				<g>
					<rect fill="#E6E6E6" x="3.888" y="5.497" width="4.32" height="10.802"/>
					<rect fill="#CCCCCC" x="4.968" y="6.794" width="2.16" height="8.751"/>
					<rect fill="#B3B3B3" x="4.968" y="6.794" width="2.16" height="0.221"/>
					<rect fill="#07466F" x="3.888" y="5.497" width="4.32" height="0.714"/>
					<g fill="#FFFFFF" opacity="0.2">
						<rect x="4.799" y="6.794" width="0.169" height="8.751"/>
						<rect x="3.69" y="5.497" width="0.198" height="10.802"/>
					</g>
				</g>
				<g transform="translate(0,5.17)">
					<g>
						<rect fill="#B3B3B3" x="4.608" y="5.68" width="2.88" height="4.729"/>
						<g opacity="0.2">
							<rect x="7.294" y="8.813" width="0.194" height="1.596"/>
							<rect x="5.699" y="10.213" width="1.595" height="0.193"/>
						</g>
					</g>
					<g>
						<rect fill="#F2F2F2" x="4.608" y="5.68" width="2.88" height="1.128"/>
						<rect x="7.298" y="7.277" opacity="0.11" width="0.194" height="1.331"/>
						<rect x="5.704" y="8.412" opacity="0.11" width="1.594" height="0.194"/>
						<g fill="#FFFFFF">
							<rect x="4.604" y="7.083" width="0.194" height="1.33"/>
							<rect x="4.799" y="7.082" width="1.594" height="0.194"/>
						</g>
					</g>
					<g>
						<rect fill="#F2F2F2" x="4.608" y="7.083" width="2.88" height="1.524"/>
						<g opacity="0.11">
							<rect x="7.298" y="5.666" width="0.194" height="1.143"/>
							<rect x="5.704" y="6.613" width="1.594" height="0.193"/>
						</g>
						<g fill="#FFFFFF">
							<rect x="4.604" y="5.68" width="0.194" height="1.105"/>
							<rect x="4.799" y="5.729" width="1.594" height="0.192"/>
						</g>
					</g>
				</g>
				<text fill="#FFFFFF" x="6" y="20.25" font-family="OCRA std" font-size="3" text-anchor="middle">16</text>
			</g>
			<g transform="translate(115.2,0)">
				<g>
					<rect fill="#E6E6E6" x="3.888" y="5.497" width="4.32" height="10.802"/>
					<rect fill="#CCCCCC" x="4.968" y="6.794" width="2.16" height="8.751"/>
					<rect fill="#B3B3B3" x="4.968" y="6.794" width="2.16" height="0.221"/>
					<rect fill="#07466F" x="3.888" y="5.497" width="4.32" height="0.714"/>
					<g fill="#FFFFFF" opacity="0.2">
						<rect x="4.799" y="6.794" width="0.169" height="8.751"/>
						<rect x="3.69" y="5.497" width="0.198" height="10.802"/>
					</g>
				</g>
				<g transform="translate(0,5.17)">
					<g>
						<rect fill="#B3B3B3" x="4.608" y="5.68" width="2.88" height="4.729"/>
						<g opacity="0.2">
							<rect x="7.294" y="8.813" width="0.194" height="1.596"/>
							<rect x="5.699" y="10.213" width="1.595" height="0.193"/>
						</g>
					</g>
					<g>
						<rect fill="#F2F2F2" x="4.608" y="5.68" width="2.88" height="1.128"/>
						<rect x="7.298" y="7.277" opacity="0.11" width="0.194" height="1.331"/>
						<rect x="5.704" y="8.412" opacity="0.11" width="1.594" height="0.194"/>
						<g fill="#FFFFFF">
							<rect x="4.604" y="7.083" width="0.194" height="1.33"/>
							<rect x="4.799" y="7.082" width="1.594" height="0.194"/>
						</g>
					</g>
					<g>
						<rect fill="#F2F2F2" x="4.608" y="7.083" width="2.88" height="1.524"/>
						<g opacity="0.11">
							<rect x="7.298" y="5.666" width="0.194" height="1.143"/>
							<rect x="5.704" y="6.613" width="1.594" height="0.193"/>
						</g>
						<g fill="#FFFFFF">
							<rect x="4.604" y="5.68" width="0.194" height="1.105"/>
							<rect x="4.799" y="5.729" width="1.594" height="0.192"/>
						</g>
					</g>
				</g>
				<text fill="#FFFFFF" x="6" y="20.25" font-family="OCRA std" font-size="3" text-anchor="middle">17</text>
			</g>
			<g transform="translate(122.4,0)">
				<g>
					<rect fill="#E6E6E6" x="3.888" y="5.497" width="4.32" height="10.802"/>
					<rect fill="#CCCCCC" x="4.968" y="6.794" width="2.16" height="8.751"/>
					<rect fill="#B3B3B3" x="4.968" y="6.794" width="2.16" height="0.221"/>
					<rect fill="#07466F" x="3.888" y="5.497" width="4.32" height="0.714"/>
					<g fill="#FFFFFF" opacity="0.2">
						<rect x="4.799" y="6.794" width="0.169" height="8.751"/>
						<rect x="3.69" y="5.497" width="0.198" height="10.802"/>
					</g>
				</g>
				<g transform="translate(0,5.17)">
					<g>
						<rect fill="#B3B3B3" x="4.608" y="5.68" width="2.88" height="4.729"/>
						<g opacity="0.2">
							<rect x="7.294" y="8.813" width="0.194" height="1.596"/>
							<rect x="5.699" y="10.213" width="1.595" height="0.193"/>
						</g>
					</g>
					<g>
						<rect fill="#F2F2F2" x="4.608" y="5.68" width="2.88" height="1.128"/>
						<rect x="7.298" y="7.277" opacity="0.11" width="0.194" height="1.331"/>
						<rect x="5.704" y="8.412" opacity="0.11" width="1.594" height="0.194"/>
						<g fill="#FFFFFF">
							<rect x="4.604" y="7.083" width="0.194" height="1.33"/>
							<rect x="4.799" y="7.082" width="1.594" height="0.194"/>
						</g>
					</g>
					<g>
						<rect fill="#F2F2F2" x="4.608" y="7.083" width="2.88" height="1.524"/>
						<g opacity="0.11">
							<rect x="7.298" y="5.666" width="0.194" height="1.143"/>
							<rect x="5.704" y="6.613" width="1.594" height="0.193"/>
						</g>
						<g fill="#FFFFFF">
							<rect x="4.604" y="5.68" width="0.194" height="1.105"/>
							<rect x="4.799" y="5.729" width="1.594" height="0.192"/>
						</g>
					</g>
				</g>
				<text fill="#FFFFFF" x="6" y="20.25" font-family="OCRA std" font-size="3" text-anchor="middle">18</text>
			</g>
			<g transform="translate(129.6,0)">
				<g>
					<rect fill="#E6E6E6" x="3.888" y="5.497" width="4.32" height="10.802"/>
					<rect fill="#CCCCCC" x="4.968" y="6.794" width="2.16" height="8.751"/>
					<rect fill="#B3B3B3" x="4.968" y="6.794" width="2.16" height="0.221"/>
					<rect fill="#07466F" x="3.888" y="5.497" width="4.32" height="0.714"/>
					<g fill="#FFFFFF" opacity="0.2">
						<rect x="4.799" y="6.794" width="0.169" height="8.751"/>
						<rect x="3.69" y="5.497" width="0.198" height="10.802"/>
					</g>
				</g>
				<g transform="translate(0,5.17)">
					<g>
						<rect fill="#B3B3B3" x="4.608" y="5.68" width="2.88" height="4.729"/>
						<g opacity="0.2">
							<rect x="7.294" y="8.813" width="0.194" height="1.596"/>
							<rect x="5.699" y="10.213" width="1.595" height="0.193"/>
						</g>
					</g>
					<g>
						<rect fill="#F2F2F2" x="4.608" y="5.68" width="2.88" height="1.128"/>
						<rect x="7.298" y="7.277" opacity="0.11" width="0.194" height="1.331"/>
						<rect x="5.704" y="8.412" opacity="0.11" width="1.594" height="0.194"/>
						<g fill="#FFFFFF">
							<rect x="4.604" y="7.083" width="0.194" height="1.33"/>
							<rect x="4.799" y="7.082" width="1.594" height="0.194"/>
						</g>
					</g>
					<g>
						<rect fill="#F2F2F2" x="4.608" y="7.083" width="2.88" height="1.524"/>
						<g opacity="0.11">
							<rect x="7.298" y="5.666" width="0.194" height="1.143"/>
							<rect x="5.704" y="6.613" width="1.594" height="0.193"/>
						</g>
						<g fill="#FFFFFF">
							<rect x="4.604" y="5.68" width="0.194" height="1.105"/>
							<rect x="4.799" y="5.729" width="1.594" height="0.192"/>
						</g>
					</g>
				</g>
				<text fill="#FFFFFF" x="6" y="20.25" font-family="OCRA std" font-size="3" text-anchor="middle">19</text>
			</g>
			<g transform="translate(136.8,0)">
				<g>
					<rect fill="#E6E6E6" x="3.888" y="5.497" width="4.32" height="10.802"/>
					<rect fill="#CCCCCC" x="4.968" y="6.794" width="2.16" height="8.751"/>
					<rect fill="#B3B3B3" x="4.968" y="6.794" width="2.16" height="0.221"/>
					<rect fill="#07466F" x="3.888" y="5.497" width="4.32" height="0.714"/>
					<g fill="#FFFFFF" opacity="0.2">
						<rect x="4.799" y="6.794" width="0.169" height="8.751"/>
						<rect x="3.69" y="5.497" width="0.198" height="10.802"/>
					</g>
				</g>
				<g transform="translate(0,5.17)">
					<g>
						<rect fill="#B3B3B3" x="4.608" y="5.68" width="2.88" height="4.729"/>
						<g opacity="0.2">
							<rect x="7.294" y="8.813" width="0.194" height="1.596"/>
							<rect x="5.699" y="10.213" width="1.595" height="0.193"/>
						</g>
					</g>
					<g>
						<rect fill="#F2F2F2" x="4.608" y="5.68" width="2.88" height="1.128"/>
						<rect x="7.298" y="7.277" opacity="0.11" width="0.194" height="1.331"/>
						<rect x="5.704" y="8.412" opacity="0.11" width="1.594" height="0.194"/>
						<g fill="#FFFFFF">
							<rect x="4.604" y="7.083" width="0.194" height="1.33"/>
							<rect x="4.799" y="7.082" width="1.594" height="0.194"/>
						</g>
					</g>
					<g>
						<rect fill="#F2F2F2" x="4.608" y="7.083" width="2.88" height="1.524"/>
						<g opacity="0.11">
							<rect x="7.298" y="5.666" width="0.194" height="1.143"/>
							<rect x="5.704" y="6.613" width="1.594" height="0.193"/>
						</g>
						<g fill="#FFFFFF">
							<rect x="4.604" y="5.68" width="0.194" height="1.105"/>
							<rect x="4.799" y="5.729" width="1.594" height="0.192"/>
						</g>
					</g>
				</g>
				<text fill="#FFFFFF" x="6" y="20.25" font-family="OCRA std" font-size="3" text-anchor="middle">20</text>
			</g>
			<g transform="translate(144.0,0)">
				<g>
					<rect fill="#E6E6E6" x="3.888" y="5.497" width="4.32" height="10.802"/>
					<rect fill="#CCCCCC" x="4.968" y="6.794" width="2.16" height="8.751"/>
					<rect fill="#B3B3B3" x="4.968" y="6.794" width="2.16" height="0.221"/>
					<rect fill="#07466F" x="3.888" y="5.497" width="4.32" height="0.714"/>
					<g fill="#FFFFFF" opacity="0.2">
						<rect x="4.799" y="6.794" width="0.169" height="8.751"/>
						<rect x="3.69" y="5.497" width="0.198" height="10.802"/>
					</g>
				</g>
				<g transform="translate(0,5.17)">
					<g>
						<rect fill="#B3B3B3" x="4.608" y="5.68" width="2.88" height="4.729"/>
						<g opacity="0.2">
							<rect x="7.294" y="8.813" width="0.194" height="1.596"/>
							<rect x="5.699" y="10.213" width="1.595" height="0.193"/>
						</g>
					</g>
					<g>
						<rect fill="#F2F2F2" x="4.608" y="5.68" width="2.88" height="1.128"/>
						<rect x="7.298" y="7.277" opacity="0.11" width="0.194" height="1.331"/>
						<rect x="5.704" y="8.412" opacity="0.11" width="1.594" height="0.194"/>
						<g fill="#FFFFFF">
							<rect x="4.604" y="7.083" width="0.194" height="1.33"/>
							<rect x="4.799" y="7.082" width="1.594" height="0.194"/>
						</g>
					</g>
					<g>
						<rect fill="#F2F2F2" x="4.608" y="7.083" width="2.88" height="1.524"/>
						<g opacity="0.11">
							<rect x="7.298" y="5.666" width="0.194" height="1.143"/>
							<rect x="5.704" y="6.613" width="1.594" height="0.193"/>
						</g>
						<g fill="#FFFFFF">
							<rect x="4.604" y="5.68" width="0.194" height="1.105"/>
							<rect x="4.799" y="5.729" width="1.594" height="0.192"/>
						</g>
					</g>
				</g>
				<text fill="#FFFFFF" x="6" y="20.25" font-family="OCRA std" font-size="3" text-anchor="middle">21</text>
			</g>
			<g transform="translate(151.2,0)">
				<g>
					<rect fill="#E6E6E6" x="3.888" y="5.497" width="4.32" height="10.802"/>
					<rect fill="#CCCCCC" x="4.968" y="6.794" width="2.16" height="8.751"/>
					<rect fill="#B3B3B3" x="4.968" y="6.794" width="2.16" height="0.221"/>
					<rect fill="#07466F" x="3.888" y="5.497" width="4.32" height="0.714"/>
					<g fill="#FFFFFF" opacity="0.2">
						<rect x="4.799" y="6.794" width="0.169" height="8.751"/>
						<rect x="3.69" y="5.497" width="0.198" height="10.802"/>
					</g>
				</g>
				<g transform="translate(0,5.17)">
					<g>
						<rect fill="#B3B3B3" x="4.608" y="5.68" width="2.88" height="4.729"/>
						<g opacity="0.2">
							<rect x="7.294" y="8.813" width="0.194" height="1.596"/>
							<rect x="5.699" y="10.213" width="1.595" height="0.193"/>
						</g>
					</g>
					<g>
						<rect fill="#F2F2F2" x="4.608" y="5.68" width="2.88" height="1.128"/>
						<rect x="7.298" y="7.277" opacity="0.11" width="0.194" height="1.331"/>
						<rect x="5.704" y="8.412" opacity="0.11" width="1.594" height="0.194"/>
						<g fill="#FFFFFF">
							<rect x="4.604" y="7.083" width="0.194" height="1.33"/>
							<rect x="4.799" y="7.082" width="1.594" height="0.194"/>
						</g>
					</g>
					<g>
						<rect fill="#F2F2F2" x="4.608" y="7.083" width="2.88" height="1.524"/>
						<g opacity="0.11">
							<rect x="7.298" y="5.666" width="0.194" height="1.143"/>
							<rect x="5.704" y="6.613" width="1.594" height="0.193"/>
						</g>
						<g fill="#FFFFFF">
							<rect x="4.604" y="5.68" width="0.194" height="1.105"/>
							<rect x="4.799" y="5.729" width="1.594" height="0.192"/>
						</g>
					</g>
				</g>
				<text fill="#FFFFFF" x="6" y="20.25" font-family="OCRA std" font-size="3" text-anchor="middle">22</text>
			</g>
			<g transform="translate(158.4,0)">
				<g>
					<rect fill="#E6E6E6" x="3.888" y="5.497" width="4.32" height="10.802"/>
					<rect fill="#CCCCCC" x="4.968" y="6.794" width="2.16" height="8.751"/>
					<rect fill="#B3B3B3" x="4.968" y="6.794" width="2.16" height="0.221"/>
					<rect fill="#07466F" x="3.888" y="5.497" width="4.32" height="0.714"/>
					<g fill="#FFFFFF" opacity="0.2">
						<rect x="4.799" y="6.794" width="0.169" height="8.751"/>
						<rect x="3.69" y="5.497" width="0.198" height="10.802"/>
					</g>
				</g>
				<g transform="translate(0,5.17)">
					<g>
						<rect fill="#B3B3B3" x="4.608" y="5.68" width="2.88" height="4.729"/>
						<g opacity="0.2">
							<rect x="7.294" y="8.813" width="0.194" height="1.596"/>
							<rect x="5.699" y="10.213" width="1.595" height="0.193"/>
						</g>
					</g>
					<g>
						<rect fill="#F2F2F2" x="4.608" y="5.68" width="2.88" height="1.128"/>
						<rect x="7.298" y="7.277" opacity="0.11" width="0.194" height="1.331"/>
						<rect x="5.704" y="8.412" opacity="0.11" width="1.594" height="0.194"/>
						<g fill="#FFFFFF">
							<rect x="4.604" y="7.083" width="0.194" height="1.33"/>
							<rect x="4.799" y="7.082" width="1.594" height="0.194"/>
						</g>
					</g>
					<g>
						<rect fill="#F2F2F2" x="4.608" y="7.083" width="2.88" height="1.524"/>
						<g opacity="0.11">
							<rect x="7.298" y="5.666" width="0.194" height="1.143"/>
							<rect x="5.704" y="6.613" width="1.594" height="0.193"/>
						</g>
						<g fill="#FFFFFF">
							<rect x="4.604" y="5.68" width="0.194" height="1.105"/>
							<rect x="4.799" y="5.729" width="1.594" height="0.192"/>
						</g>
					</g>
				</g>
				<text fill="#FFFFFF" x="6" y="20.25" font-family="OCRA std" font-size="3" text-anchor="middle">23</text>
			</g>
			<g transform="translate(165.6,0)">
				<g>
					<rect fill="#E6E6E6" x="3.888" y="5.497" width="4.32" height="10.802"/>
					<rect fill="#CCCCCC" x="4.968" y="6.794" width="2.16" height="8.751"/>
					<rect fill="#B3B3B3" x="4.968" y="6.794" width="2.16" height="0.221"/>
					<rect fill="#07466F" x="3.888" y="5.497" width="4.32" height="0.714"/>
					<g fill="#FFFFFF" opacity="0.2">
						<rect x="4.799" y="6.794" width="0.169" height="8.751"/>
						<rect x="3.69" y="5.497" width="0.198" height="10.802"/>
					</g>
				</g>
				<g transform="translate(0,5.17)">
					<g>
						<rect fill="#B3B3B3" x="4.608" y="5.68" width="2.88" height="4.729"/>
						<g opacity="0.2">
							<rect x="7.294" y="8.813" width="0.194" height="1.596"/>
							<rect x="5.699" y="10.213" width="1.595" height="0.193"/>
						</g>
					</g>
					<g>
						<rect fill="#F2F2F2" x="4.608" y="5.68" width="2.88" height="1.128"/>
						<rect x="7.298" y="7.277" opacity="0.11" width="0.194" height="1.331"/>
						<rect x="5.704" y="8.412" opacity="0.11" width="1.594" height="0.194"/>
						<g fill="#FFFFFF">
							<rect x="4.604" y="7.083" width="0.194" height="1.33"/>
							<rect x="4.799" y="7.082" width="1.594" height="0.194"/>
						</g>
					</g>
					<g>
						<rect fill="#F2F2F2" x="4.608" y="7.083" width="2.88" height="1.524"/>
						<g opacity="0.11">
							<rect x="7.298" y="5.666" width="0.194" height="1.143"/>
							<rect x="5.704" y="6.613" width="1.594" height="0.193"/>
						</g>
						<g fill="#FFFFFF">
							<rect x="4.604" y="5.68" width="0.194" height="1.105"/>
							<rect x="4.799" y="5.729" width="1.594" height="0.192"/>
						</g>
					</g>
				</g>
				<text fill="#FFFFFF" x="6" y="20.25" font-family="OCRA std" font-size="3" text-anchor="middle">24</text>
			</g>
			<g transform="translate(172.8,0)">
				<g>
					<rect fill="#E6E6E6" x="3.888" y="5.497" width="4.32" height="10.802"/>
					<rect fill="#CCCCCC" x="4.968" y="6.794" width="2.16" height="8.751"/>
					<rect fill="#B3B3B3" x="4.968" y="6.794" width="2.16" height="0.221"/>
					<rect fill="#07466F" x="3.888" y="5.497" width="4.32" height="0.714"/>
					<g fill="#FFFFFF" opacity="0.2">
						<rect x="4.799" y="6.794" width="0.169" height="8.751"/>
						<rect x="3.69" y="5.497" width="0.198" height="10.802"/>
					</g>
				</g>
				<g transform="translate(0,5.17)">
					<g>
						<rect fill="#B3B3B3" x="4.608" y="5.68" width="2.88" height="4.729"/>
						<g opacity="0.2">
							<rect x="7.294" y="8.813" width="0.194" height="1.596"/>
							<rect x="5.699" y="10.213" width="1.595" height="0.193"/>
						</g>
					</g>
					<g>
						<rect fill="#F2F2F2" x="4.608" y="5.68" width="2.88" height="1.128"/>
						<rect x="7.298" y="7.277" opacity="0.11" width="0.194" height="1.331"/>
						<rect x="5.704" y="8.412" opacity="0.11" width="1.594" height="0.194"/>
						<g fill="#FFFFFF">
							<rect x="4.604" y="7.083" width="0.194" height="1.33"/>
							<rect x="4.799" y="7.082" width="1.594" height="0.194"/>
						</g>
					</g>
					<g>
						<rect fill="#F2F2F2" x="4.608" y="7.083" width="2.88" height="1.524"/>
						<g opacity="0.11">
							<rect x="7.298" y="5.666" width="0.194" height="1.143"/>
							<rect x="5.704" y="6.613" width="1.594" height="0.193"/>
						</g>
						<g fill="#FFFFFF">
							<rect x="4.604" y="5.68" width="0.194" height="1.105"/>
							<rect x="4.799" y="5.729" width="1.594" height="0.192"/>
						</g>
					</g>
				</g>
				<text fill="#FFFFFF" x="6" y="20.25" font-family="OCRA std" font-size="3" text-anchor="middle">25</text>
			</g>
			<g transform="translate(180.0,0)">
				<g>
					<rect fill="#E6E6E6" x="3.888" y="5.497" width="4.32" height="10.802"/>
					<rect fill="#CCCCCC" x="4.968" y="6.794" width="2.16" height="8.751"/>
					<rect fill="#B3B3B3" x="4.968" y="6.794" width="2.16" height="0.221"/>
					<rect fill="#07466F" x="3.888" y="5.497" width="4.32" height="0.714"/>
					<g fill="#FFFFFF" opacity="0.2">
						<rect x="4.799" y="6.794" width="0.169" height="8.751"/>
						<rect x="3.69" y="5.497" width="0.198" height="10.802"/>
					</g>
				</g>
				<g transform="translate(0,5.17)">
					<g>
						<rect fill="#B3B3B3" x="4.608" y="5.68" width="2.88" height="4.729"/>
						<g opacity="0.2">
							<rect x="7.294" y="8.813" width="0.194" height="1.596"/>
							<rect x="5.699" y="10.213" width="1.595" height="0.193"/>
						</g>
					</g>
					<g>
						<rect fill="#F2F2F2" x="4.608" y="5.68" width="2.88" height="1.128"/>
						<rect x="7.298" y="7.277" opacity="0.11" width="0.194" height="1.331"/>
						<rect x="5.704" y="8.412" opacity="0.11" width="1.594" height="0.194"/>
						<g fill="#FFFFFF">
							<rect x="4.604" y="7.083" width="0.194" height="1.33"/>
							<rect x="4.799" y="7.082" width="1.594" height="0.194"/>
						</g>
					</g>
					<g>
						<rect fill="#F2F2F2" x="4.608" y="7.083" width="2.88" height="1.524"/>
						<g opacity="0.11">
							<rect x="7.298" y="5.666" width="0.194" height="1.143"/>
							<rect x="5.704" y="6.613" width="1.594" height="0.193"/>
						</g>
						<g fill="#FFFFFF">
							<rect x="4.604" y="5.68" width="0.194" height="1.105"/>
							<rect x="4.799" y="5.729" width="1.594" height="0.192"/>
						</g>
					</g>
				</g>
				<text fill="#FFFFFF" x="6" y="20.25" font-family="OCRA std" font-size="3" text-anchor="middle">26</text>
			</g>
			<g transform="translate(187.2,0)">
				<g>
					<rect fill="#E6E6E6" x="3.888" y="5.497" width="4.32" height="10.802"/>
					<rect fill="#CCCCCC" x="4.968" y="6.794" width="2.16" height="8.751"/>
					<rect fill="#B3B3B3" x="4.968" y="6.794" width="2.16" height="0.221"/>
					<rect fill="#07466F" x="3.888" y="5.497" width="4.32" height="0.714"/>
					<g fill="#FFFFFF" opacity="0.2">
						<rect x="4.799" y="6.794" width="0.169" height="8.751"/>
						<rect x="3.69" y="5.497" width="0.198" height="10.802"/>
					</g>
				</g>
				<g transform="translate(0,5.17)">
					<g>
						<rect fill="#B3B3B3" x="4.608" y="5.68" width="2.88" height="4.729"/>
						<g opacity="0.2">
							<rect x="7.294" y="8.813" width="0.194" height="1.596"/>
							<rect x="5.699" y="10.213" width="1.595" height="0.193"/>
						</g>
					</g>
					<g>
						<rect fill="#F2F2F2" x="4.608" y="5.68" width="2.88" height="1.128"/>
						<rect x="7.298" y="7.277" opacity="0.11" width="0.194" height="1.331"/>
						<rect x="5.704" y="8.412" opacity="0.11" width="1.594" height="0.194"/>
						<g fill="#FFFFFF">
							<rect x="4.604" y="7.083" width="0.194" height="1.33"/>
							<rect x="4.799" y="7.082" width="1.594" height="0.194"/>
						</g>
					</g>
					<g>
						<rect fill="#F2F2F2" x="4.608" y="7.083" width="2.88" height="1.524"/>
						<g opacity="0.11">
							<rect x="7.298" y="5.666" width="0.194" height="1.143"/>
							<rect x="5.704" y="6.613" width="1.594" height="0.193"/>
						</g>
						<g fill="#FFFFFF">
							<rect x="4.604" y="5.68" width="0.194" height="1.105"/>
							<rect x="4.799" y="5.729" width="1.594" height="0.192"/>
						</g>
					</g>
				</g>
				<text fill="#FFFFFF" x="6" y="20.25" font-family="OCRA std" font-size="3" text-anchor="middle">27</text>
			</g>
			<g transform="translate(194.4,0)">
				<g>
					<rect fill="#E6E6E6" x="3.888" y="5.497" width="4.32" height="10.802"/>
					<rect fill="#CCCCCC" x="4.968" y="6.794" width="2.16" height="8.751"/>
					<rect fill="#B3B3B3" x="4.968" y="6.794" width="2.16" height="0.221"/>
					<rect fill="#07466F" x="3.888" y="5.497" width="4.32" height="0.714"/>
					<g fill="#FFFFFF" opacity="0.2">
						<rect x="4.799" y="6.794" width="0.169" height="8.751"/>
						<rect x="3.69" y="5.497" width="0.198" height="10.802"/>
					</g>
				</g>
				<g transform="translate(0,5.17)">
					<g>
						<rect fill="#B3B3B3" x="4.608" y="5.68" width="2.88" height="4.729"/>
						<g opacity="0.2">
							<rect x="7.294" y="8.813" width="0.194" height="1.596"/>
							<rect x="5.699" y="10.213" width="1.595" height="0.193"/>
						</g>
					</g>
					<g>
						<rect fill="#F2F2F2" x="4.608" y="5.68" width="2.88" height="1.128"/>
						<rect x="7.298" y="7.277" opacity="0.11" width="0.194" height="1.331"/>
						<rect x="5.704" y="8.412" opacity="0.11" width="1.594" height="0.194"/>
						<g fill="#FFFFFF">
							<rect x="4.604" y="7.083" width="0.194" height="1.33"/>
							<rect x="4.799" y="7.082" width="1.594" height="0.194"/>
						</g>
					</g>
					<g>
						<rect fill="#F2F2F2" x="4.608" y="7.083" width="2.88" height="1.524"/>
						<g opacity="0.11">
							<rect x="7.298" y="5.666" width="0.194" height="1.143"/>
							<rect x="5.704" y="6.613" width="1.594" height="0.193"/>
						</g>
						<g fill="#FFFFFF">
							<rect x="4.604" y="5.68" width="0.194" height="1.105"/>
							<rect x="4.799" y="5.729" width="1.594" height="0.192"/>
						</g>
					</g>
				</g>
				<text fill="#FFFFFF" x="6" y="20.25" font-family="OCRA std" font-size="3" text-anchor="middle">28</text>
			</g>
		</g>
		<g fill="none" transform="translate(6.048,-3.6)">
			<g transform="translate(0,27.603)">
				<circle id="connector-0-pin" cx="0" cy="0" r="1.512"/>
				<circle id="connector-1-pin" cx="7.2" cy="0" r="1.512"/>
				<circle id="connector-2-pin" cx="14.4" cy="0" r="1.512"/>
				<circle id="connector-3-pin" cx="21.6" cy="0" r="1.512"/>
				<circle id="connector-4-pin" cx="28.8" cy="0" r="1.512"/>
				<circle id="connector-5-pin" cx="36.0" cy="0" r="1.512"/>
				<circle id="connector-6-pin" cx="43.2" cy="0" r="1.512"/>
				<circle id="connector-7-pin" cx="50.4" cy="0" r="1.512"/>
				<circle id="connector-8-pin" cx="57.6" cy="0" r="1.512"/>
				<circle id="connector-9-pin" cx="64.8" cy="0" r="1.512"/>
				<circle id="connector-10-pin" cx="72.0" cy="0" r="1.512"/>
				<circle id="connector-11-pin" cx="79.2" cy="0" r="1.512"/>
				<circle id="connector-12-pin" cx="86.4" cy="0" r="1.512"/>
				<circle id="connector-13-pin" cx="93.6" cy="0" r="1.512"/>
				<circle id="connector-14-pin" cx="100.8" cy="0" r="1.512"/>
				<circle id="connector-15-pin" cx="108.0" cy="0" r="1.512"/>
				<circle id="connector-16-pin" cx="115.2" cy="0" r="1.512"/>
				<circle id="connector-17-pin" cx="122.4" cy="0" r="1.512"/>
				<circle id="connector-18-pin" cx="129.6" cy="0" r="1.512"/>
				<circle id="connector-19-pin" cx="136.8" cy="0" r="1.512"/>
				<circle id="connector-20-pin" cx="144.0" cy="0" r="1.512"/>
				<circle id="connector-21-pin" cx="151.2" cy="0" r="1.512"/>
				<circle id="connector-22-pin" cx="158.4" cy="0" r="1.512"/>
				<circle id="connector-23-pin" cx="165.6" cy="0" r="1.512"/>
				<circle id="connector-24-pin" cx="172.8" cy="0" r="1.512"/>
				<circle id="connector-25-pin" cx="180.0" cy="0" r="1.512"/>
				<circle id="connector-26-pin" cx="187.2" cy="0" r="1.512"/>
				<circle id="connector-27-pin" cx="194.4" cy="0" r="1.512"/>
			</g>
			<g transform="translate(0,6.003)">
				<circle id="connector-28-pin" cx="194.4" cy="0" r="1.512"/>
				<circle id="connector-29-pin" cx="187.2" cy="0" r="1.512"/>
				<circle id="connector-30-pin" cx="180.0" cy="0" r="1.512"/>
				<circle id="connector-31-pin" cx="172.8" cy="0" r="1.512"/>
				<circle id="connector-32-pin" cx="165.6" cy="0" r="1.512"/>
				<circle id="connector-33-pin" cx="158.4" cy="0" r="1.512"/>
				<circle id="connector-34-pin" cx="151.2" cy="0" r="1.512"/>
				<circle id="connector-35-pin" cx="144.0" cy="0" r="1.512"/>
				<circle id="connector-36-pin" cx="136.8" cy="0" r="1.512"/>
				<circle id="connector-37-pin" cx="129.6" cy="0" r="1.512"/>
				<circle id="connector-38-pin" cx="122.4" cy="0" r="1.512"/>
				<circle id="connector-39-pin" cx="115.2" cy="0" r="1.512"/>
				<circle id="connector-40-pin" cx="108.0" cy="0" r="1.512"/>
				<circle id="connector-41-pin" cx="100.8" cy="0" r="1.512"/>
				<circle id="connector-42-pin" cx="93.6" cy="0" r="1.512"/>
				<circle id="connector-43-pin" cx="86.4" cy="0" r="1.512"/>
				<circle id="connector-44-pin" cx="79.2" cy="0" r="1.512"/>
				<circle id="connector-45-pin" cx="72.0" cy="0" r="1.512"/>
				<circle id="connector-46-pin" cx="64.8" cy="0" r="1.512"/>
				<circle id="connector-47-pin" cx="57.6" cy="0" r="1.512"/>
				<circle id="connector-48-pin" cx="50.4" cy="0" r="1.512"/>
				<circle id="connector-49-pin" cx="43.2" cy="0" r="1.512"/>
				<circle id="connector-50-pin" cx="36.0" cy="0" r="1.512"/>
				<circle id="connector-51-pin" cx="28.8" cy="0" r="1.512"/>
				<circle id="connector-52-pin" cx="21.6" cy="0" r="1.512"/>
				<circle id="connector-53-pin" cx="14.4" cy="0" r="1.512"/>
				<circle id="connector-54-pin" cx="7.2" cy="0" r="1.512"/>
				<circle id="connector-55-pin" cx="0" cy="0" r="1.512"/>
			</g>
		</g>
	</g>
</svg>