<?xml version="1.0" encoding="UTF-8"?>
<!DOCTYPE svg PUBLIC "-//W3C//DTD SVG 1.1//EN" "http://www.w3.org/Graphics/SVG/1.1/DTD/svg11.dtd">
<svg xmlns="http://www.w3.org/2000/svg" version="1.1" width=".8in" height="0.33in" viewBox="0 0 57.6 23.76" baseProfile="tiny">
	<g fill="none">
		<g transform="translate(2.52,0)">
			<g transform="translate(0,21.6)">
				<rect id="connector-0-pin" x="0" y="0" width="2.16" height="3.125"/>
				<rect id="connector-0-terminal" x="0" y="0" width="2.16" height="2.16"/>
				<rect id="connector-1-pin" x="7.2" y="0" width="2.16" height="3.125"/>
				<rect id="connector-1-terminal" x="7.2" y="0" width="2.16" height="2.16"/>
				<rect id="connector-2-pin" x="14.4" y="0" width="2.16" height="3.125"/>
				<rect id="connector-2-terminal" x="14.4" y="0" width="2.16" height="2.16"/>
				<rect id="connector-3-pin" x="21.6" y="0" width="2.16" height="3.125"/>
				<rect id="connector-3-terminal" x="21.6" y="0" width="2.16" height="2.16"/>
				<rect id="connector-4-pin" x="28.8" y="0" width="2.16" height="3.125"/>
				<rect id="connector-4-terminal" x="28.8" y="0" width="2.16" height="2.16"/>
				<rect id="connector-5-pin" x="36.0" y="0" width="2.16" height="3.125"/>
				<rect id="connector-5-terminal" x="36.0" y="0" width="2.16" height="2.16"/>
				<rect id="connector-6-pin" x="43.2" y="0" width="2.16" height="3.125"/>
				<rect id="connector-6-terminal" x="43.2" y="0" width="2.16" height="2.16"/>
				<rect id="connector-7-pin" x="50.4" y="0" width="2.16" height="3.125"/>
				<rect id="connector-7-terminal" x="50.4" y="0" width="2.16" height="2.16"/>
			</g>
			<g transform="translate(0,0)">
				<rect id="connector-8-pin" x="50.4" y="0" width="2.16" height="3.125"/>
				<rect id="connector-8-terminal" x="50.4" y="0" width="2.16" height="2.16"/>
				<rect id="connector-9-pin" x="43.2" y="0" width="2.16" height="3.125"/>
				<rect id="connector-9-terminal" x="43.2" y="0" width="2.16" height="2.16"/>
				<rect id="connector-10-pin" x="36.0" y="0" width="2.16" height="3.125"/>
				<rect id="connector-10-terminal" x="36.0" y="0" width="2.16" height="2.16"/>
				<rect id="connector-11-pin" x="28.8" y="0" width="2.16" height="3.125"/>
				<rect id="connector-11-terminal" x="28.8" y="0" width="2.16" height="2.16"/>
				<rect id="connector-12-pin" x="21.6" y="0" width="2.16" height="3.125"/>
				<rect id="connector-12-terminal" x="21.6" y="0" width="2.16" height="2.16"/>
				<rect id="connector-13-pin" x="14.4" y="0" width="2.16" height="3.125"/>
				<rect id="connector-13-terminal" x="14.4" y="0" width="2.16" height="2.16"/>
				<rect id="connector-14-pin" x="7.2" y="0" width="2.16" height="3.125"/>
				<rect id="connector-14-terminal" x="7.2" y="0" width="2.16" height="2.16"/>
				<rect id="connector-15-pin" x="0" y="0" width="2.16" height="3.125"/>
				<rect id="connector-15-terminal" x="0" y="0" width="2.16" height="2.16"/>
			</g>
		</g>
	</g>
	<g id="breadboard">
		<g fill="#8C8C8C">
			<g transform="translate(2.52,0)">
				<g transform="translate(0,18.949)">
					<rect x="0" y="0" width="2.16" height="4.81"/>
					<rect x="7.2" y="0" width="2.16" height="4.81"/>
					<rect x="14.4" y="0" width="2.16" height="4.81"/>
					<rect x="21.6" y="0" width="2.16" height="4.81"/>
					<rect x="28.8" y="0" width="2.16" height="4.81"/>
					<rect x="36.0" y="0" width="2.16" height="4.81"/>
					<rect x="43.2" y="0" width="2.16" height="4.81"/>
					<rect x="50.4" y="0" width="2.16" height="4.81"/>
				</g>
				<g transform="translate(0,0)">
					<rect x="50.4" y="0" width="2.16" height="4.81"/>
					<rect x="43.2" y="0" width="2.16" height="4.81"/>
					<rect x="36.0" y="0" width="2.16" height="4.81"/>
					<rect x="28.8" y="0" width="2.16" height="4.81"/>
					<rect x="21.6" y="0" width="2.16" height="4.81"/>
					<rect x="14.4" y="0" width="2.16" height="4.81"/>
					<rect x="7.2" y="0" width="2.16" height="4.81"/>
					<rect x="0" y="0" width="2.16" height="4.81"/>
				</g>
			</g>
		</g>
		<rect fill="#3D3D3D" x="0" y="2.16" width="57.6" height="6.12"/>
		<rect fill="#000000" x="0" y="15.48" width="57.6" height="6.12"/>
		<g fill="#8C8C8C">
			<g transform="translate(1.08,0)">
				<g transform="translate(0,20.636)">
					<g>
						<polygon transform="translate(0,0)" points="0,0 0,0.776 1.44,1.438 3.6,1.438 5.04,0.776 5.04,0"/>
						<polygon transform="translate(7.2,0)" points="0,0 0,0.776 1.44,1.438 3.6,1.438 5.04,0.776 5.04,0"/>
						<polygon transform="translate(14.4,0)" points="0,0 0,0.776 1.44,1.438 3.6,1.438 5.04,0.776 5.04,0"/>
						<polygon transform="translate(21.6,0)" points="0,0 0,0.776 1.44,1.438 3.6,1.438 5.04,0.776 5.04,0"/>
						<polygon transform="translate(28.8,0)" points="0,0 0,0.776 1.44,1.438 3.6,1.438 5.04,0.776 5.04,0"/>
						<polygon transform="translate(36.0,0)" points="0,0 0,0.776 1.44,1.438 3.6,1.438 5.04,0.776 5.04,0"/>
						<polygon transform="translate(43.2,0)" points="0,0 0,0.776 1.44,1.438 3.6,1.438 5.04,0.776 5.04,0"/>
						<polygon transform="translate(50.4,0)" points="0,0 0,0.776 1.44,1.438 3.6,1.438 5.04,0.776 5.04,0"/>
					</g>
				</g>
				<g transform="translate(0,1.685)">
					<g transform="translate(0,1.438) scale(1,-1)">
						<polygon transform="translate(50.4,0)" points="0,0 0,0.776 1.44,1.438 3.6,1.438 5.04,0.776 5.04,0"/>
						<polygon transform="translate(43.2,0)" points="0,0 0,0.776 1.44,1.438 3.6,1.438 5.04,0.776 5.04,0"/>
						<polygon transform="translate(36.0,0)" points="0,0 0,0.776 1.44,1.438 3.6,1.438 5.04,0.776 5.04,0"/>
						<polygon transform="translate(28.8,0)" points="0,0 0,0.776 1.44,1.438 3.6,1.438 5.04,0.776 5.04,0"/>
						<polygon transform="translate(21.6,0)" points="0,0 0,0.776 1.44,1.438 3.6,1.438 5.04,0.776 5.04,0"/>
						<polygon transform="translate(14.4,0)" points="0,0 0,0.776 1.44,1.438 3.6,1.438 5.04,0.776 5.04,0"/>
						<polygon transform="translate(7.2,0)" points="0,0 0,0.776 1.44,1.438 3.6,1.438 5.04,0.776 5.04,0"/>
						<polygon transform="translate(0,0)" points="0,0 0,0.776 1.44,1.438 3.6,1.438 5.04,0.776 5.04,0"/>
					</g>
				</g>
			</g>
		</g>
		<polygon fill="#1F1F1F" points="0,2.16 0.54,3.94 0.54,8.28 3.6,8.28 3.6,15.48 0.54,15.48 0.54,19.84 0,21.6"/>
		<polygon fill="#1C1C1C" points="3.6,8.28 0.54,8.28 0.4,9.8 0.4,11.88 3.6,11.88"/>
		<polygon fill="#383838" points="0.54,15.48 3.6,15.48 3.6,11.88 0.4,11.88 0.4,13.96"/>
		<g fill="#303030">
			<path d="m 0.54,3.931 v 4.32 c 1.713,0.324 3.017,1.822 3.017,3.629 0,1.807 -1.296,3.313 -3.017,3.637 v 4.319 H 3.7039435 L 3.7041138,3.931 Z"/>
			<rect x="3.6" y="3.931" width="54.0" height="15.897"/>
		</g>
		<polygon transform="scale(-1,1) translate(-57.6,0)" fill="#141414" points="0,2.16 0.54,3.94 0.54,19.84 0,21.6"/>
		<path fill="#262626" d="m 0.403,9.792 v 4.196 C 1.462,13.867 2.29,12.98 2.29,11.886 2.29,10.8 1.469,9.9 0.403,9.792 Z"/>
		<circle fill="#212121" cx="4.68" cy="16.898" r="1.483"/>
	</g>
	<text fill="#E5E5E5" font-family="OCRA std" font-size="5.76" x="28" y="13.6" text-anchor="middle">CD4017</text>
</svg>