<?xml version="1.0" encoding="UTF-8"?>
<!DOCTYPE svg PUBLIC "-//W3C//DTD SVG 1.1//EN" "http://www.w3.org/Graphics/SVG/1.1/DTD/svg11.dtd">
<svg height="3in" version="1.1" viewBox="0 0 70 30" width="7in" xmlns="http://www.w3.org/2000/svg" xmlns:xlink="http://www.w3.org/1999/xlink">
	<defs>
		<polygon fill="#888888" id="front-pin-template" points="-2.5,0 -2.5,1 -0.5,2 -0.5,5 0.5,5 0.5,2 2.5,1 2.5,0" stroke="none"/>
		<polygon fill="#888888" id="back-pin-template" points="-2.5,0 -2.5,-1 -0.5,-2 -0.5,-5 0.5,-5 0.5,-2 2.5,-1 2.5,0" stroke="none"/>
		<circle cx="0" cy="0" id="terminal-template" opacity="0" r="0.001"/>
	</defs>
	<g id="breadboard">
		<g stroke="none">
			<g transform="translate(0,15)">
				<rect fill="#333333" height="20" width="70" x="0" y="-10"/>
				<path d="M 5,0 C 5,2.7614237 2.7614237,5 0,5 V -5 c 2.7614237,0 5,2.2385763 5,5 z" fill="#000000" transform="translate(0,0)"/>
				<text fill="#FFFFFF" font-family="OCRA std" font-size="5" text-anchor="middle" x="35" y="1.25">CD4001</text>
				<g transform="translate(5,0)">
					<circle cx="0" cy="7.5" fill="#000000" r="1"/>
					<g transform="translate(0,10)">
						<use id="connector-I0A-pin" transform="translate(0,0)" xlink:href="#front-pin-template"/>
						<use id="connector-I0B-pin" transform="translate(10,0)" xlink:href="#front-pin-template"/>
						<use id="connector-O0-pin" transform="translate(20,0)" xlink:href="#front-pin-template"/>
						<use id="connector-O1-pin" transform="translate(30,0)" xlink:href="#front-pin-template"/>
						<use id="connector-I1A-pin" transform="translate(40,0)" xlink:href="#front-pin-template"/>
						<use id="connector-I1B-pin" transform="translate(50,0)" xlink:href="#front-pin-template"/>
						<use id="connector-GND-pin" transform="translate(60,0)" xlink:href="#front-pin-template"/>
					</g>
					<g transform="translate(0,15)">
						<use id="connector-I0A-terminal" transform="translate(0,0)" xlink:href="#terminal-template"/>
						<use id="connector-I0B-terminal" transform="translate(10,0)" xlink:href="#terminal-template"/>
						<use id="connector-O0-terminal" transform="translate(20,0)" xlink:href="#terminal-template"/>
						<use id="connector-O1-terminal" transform="translate(30,0)" xlink:href="#terminal-template"/>
						<use id="connector-I1A-terminal" transform="translate(40,0)" xlink:href="#terminal-template"/>
						<use id="connector-I1B-terminal" transform="translate(50,0)" xlink:href="#terminal-template"/>
						<use id="connector-GND-terminal" transform="translate(60,0)" xlink:href="#terminal-template"/>
					</g>
					<g transform="translate(0,-10)">
						<use id="connector-I2A-pin" transform="translate(60,0)" xlink:href="#back-pin-template"/>
						<use id="connector-I2B-pin" transform="translate(50,0)" xlink:href="#back-pin-template"/>
						<use id="connector-O2-pin" transform="translate(40,0)" xlink:href="#back-pin-template"/>
						<use id="connector-O3-pin" transform="translate(30,0)" xlink:href="#back-pin-template"/>
						<use id="connector-I3A-pin" transform="translate(20,0)" xlink:href="#back-pin-template"/>
						<use id="connector-I3B-pin" transform="translate(10,0)" xlink:href="#back-pin-template"/>
						<use id="connector-VCC-pin" transform="translate(0,0)" xlink:href="#back-pin-template"/>
					</g>
					<g transform="translate(0,-15)">
						<use id="connector-I2A-terminal" transform="translate(60,0)" xlink:href="#terminal-template"/>
						<use id="connector-I2B-terminal" transform="translate(50,0)" xlink:href="#terminal-template"/>
						<use id="connector-O2-terminal" transform="translate(40,0)" xlink:href="#terminal-template"/>
						<use id="connector-O3-terminal" transform="translate(30,0)" xlink:href="#terminal-template"/>
						<use id="connector-I3A-terminal" transform="translate(20,0)" xlink:href="#terminal-template"/>
						<use id="connector-I3B-terminal" transform="translate(10,0)" xlink:href="#terminal-template"/>
						<use id="connector-VCC-terminal" transform="translate(0,0)" xlink:href="#terminal-template"/>
					</g>
				</g>
			</g>
		</g>
	</g>
</svg>