<?xml version="1.0" encoding="UTF-8"?>
<!DOCTYPE svg PUBLIC "-//W3C//DTD SVG 1.1//EN" "http://www.w3.org/Graphics/SVG/1.1/DTD/svg11.dtd">
<svg xmlns="http://www.w3.org/2000/svg" version="1.2" width="0.21467in" height="0.40565in" viewBox="0 0 21.467 40.565">
	<g id="breadboard">
		<rect id="connector-0-pin" x="14.793" y="35.307" fill="none" width="2.992" height="1"/>
		<rect id="connector-1-pin" x="4.793" y="35.307" fill="none" width="2.989" height="1"/>
		<line id="connector-0-leg" stroke-linecap="round" x1="16.29" y1="40.565" x2="16.29" y2="44.754" stroke="#8C8C8C" fill="none" stroke-width="2.988" />
		<line id="connector-1-leg" stroke-linecap="round" x1="6.287" y1="40.565" x2="6.287" y2="44.754" stroke="#8C8C8C" fill="none" stroke-width="2.988" />
		<rect x="4.793" y="26.916" fill="#8C8C8C" width="2.988" height="13.649"/>
		<path fill="#8C8C8C" d="M17.784,40.565c0-1.63-1.479-2.92-2.9-4.155c-0.578-0.51-1.666-1.391-1.666-1.979v-7.598h-3.002v8.028
		c0,1.47,1.316,2.609,2.703,3.817c0.617,0.522,1.873,1.736,1.873,2.458"/>
		<g id="g12">
			<path opacity="0.3" fill="Orange" d="M19.685,18.057V9.845
			C19.685,4.41,15.285,0,9.844,0C4.41,0,0,4.402,0,9.845v18.957c2.047,2.293,5.69,3.823,9.844,3.823
			c6.416,0,11.623-3.636,11.623-8.138v-2.116C21.466,20.784,20.808,19.31,19.685,18.057z"/>
			<path opacity="0.7" fill="Orange" d="M19.685,18.057v4.313
			c0,3.804-4.397,6.896-9.841,6.896C4.41,29.266,0,26.184,0,22.37v4.313V28.8c2.047,2.294,5.69,3.823,9.844,3.823
			c6.416,0,11.623-3.636,11.623-8.137V22.37C21.466,20.784,20.808,19.31,19.685,18.057z"/>
			<path opacity="0.25" fill="Orange" d="M19.685,18.057v4.313c0,3.804-4.397,6.896-9.841,6.896
			C4.41,29.266,0,26.184,0,22.37v4.313c2.047,2.292,5.69,3.823,9.844,3.823c6.416,0,11.623-3.636,11.623-8.137
			C21.466,20.784,20.808,19.31,19.685,18.057z"/>
			<ellipse opacity="0.25" fill="Orange" cx="9.844" cy="22.37" rx="9.843" ry="6.89"/>
			<polygon fill="#666666" points="3.06,13.4 3.06,22.371 4.439,22.371 4.439,18.187 8.355,18.187 13.906,12.229 
			4.732,12.229 "/>
			<polygon fill="#666666" points="14.97,11.839 15.576,12.547 10.294,18.187 15.361,18.187 15.361,22.371 
			16.63,22.371 16.63,11.839 "/>
			<path opacity="0.65" fill="Orange" d="M19.685,18.057V9.845
			C19.685,4.41,15.285,0,9.844,0C4.41,0,0,4.402,0,9.845v18.957c2.047,2.293,5.69,3.823,9.844,3.823
			c6.416,0,11.623-3.636,11.623-8.138v-2.116C21.466,20.784,20.808,19.31,19.685,18.057z"/>
			<path opacity="0.5" fill="#FFFFFF" d="M14.428,5.214l1.995-0.38
			c-1.169-1.572-2.892-2.719-4.919-3.109l0.353,1.501C12.918,3.602,13.811,4.31,14.428,5.214z"/>
			<path opacity="0.5" fill="#FFFFFF" d="M1.067,27.675v2.111
			c0.901,0.735,1.991,1.356,3.205,1.829v-2.118C3.052,29.03,1.971,28.411,1.067,27.675z"/>
			<path opacity="0.5" fill="#FFFFFF" d="M15.379,28.069
			c-0.355,0.17-0.736,0.319-1.119,0.458c-0.081,0.027-0.163,0.056-0.247,0.081c-0.783,0.249-1.613,0.443-2.493,0.548
			c-0.104,0.013-0.21,0.026-0.312,0.027c-0.445,0.042-0.894,0.081-1.348,0.081c-0.206,0-0.427-0.021-0.655-0.033
			c-1.667-0.079-3.237-0.437-4.58-1.027V16.552V9.85c0-2.043,1.178-3.791,2.88-4.652L7.474,5.124l-1.733-2.1
			c-2.319,1.393-3.875,3.92-3.875,6.822v16.535c-0.069-0.069-0.428-0.429-0.667-0.736l-0.427,0.955
			c1.946,2.058,5.29,3.419,9.087,3.419c2.333,0,4.496-0.519,6.266-1.392l-0.732-0.568C15.379,28.069,15.379,28.069,15.379,28.069z"
			/>
		</g>
	</g>
</svg>