<?xml version="1.0" encoding="UTF-8"?>
<!DOCTYPE svg PUBLIC "-//W3C//DTD SVG 1.1//EN" "http://www.w3.org/Graphics/SVG/1.1/DTD/svg11.dtd">
<svg height="4in" version="1.1" viewBox="0 0 40 40" width="4in" xmlns="http://www.w3.org/2000/svg" xmlns:xlink="http://www.w3.org/1999/xlink">
	<defs>
		<rect fill="White" height="24" id="led-template" stroke="none" width="6" x="-3" y="-12"/>
		<rect height="5" id="1st-pin-template" opacity="0" width="5" x="-2.5" y="-2.5"/>
		<circle cx="0" cy="0" id="pin-template" opacity="0" r="2.5"/>
	</defs>
	<g id="breadboard">
		<g stroke="none">
			<rect fill="#000000" height="40" width="40" x="0" y="0"/>
			<circle cx="20" cy="40" fill="#444444" r="5" stroke="none"/>
			<g transform="translate(5,20)">
				<g transform="translate(0,0)">
					<use transform="translate(0,0)" xlink:href="#led-template"/>
					<use transform="translate(10,0)" xlink:href="#led-template"/>
					<use transform="translate(20,0)" xlink:href="#led-template"/>
					<use transform="translate(30,0)" xlink:href="#led-template"/>
				</g>
				<g transform="translate(0,15)">
					<use id="connector-1--pin" transform="translate(0,0)" xlink:href="#1st-pin-template"/>
					<use id="connector-2--pin" transform="translate(10,0)" xlink:href="#pin-template"/>
					<use id="connector-3--pin" transform="translate(20,0)" xlink:href="#pin-template"/>
					<use id="connector-4--pin" transform="translate(30,0)" xlink:href="#pin-template"/>
				</g>
				<g transform="translate(0,-15)">
					<use id="connector-4+-pin" transform="translate(30,0)" xlink:href="#pin-template"/>
					<use id="connector-3+-pin" transform="translate(20,0)" xlink:href="#pin-template"/>
					<use id="connector-2+-pin" transform="translate(10,0)" xlink:href="#pin-template"/>
					<use id="connector-1+-pin" transform="translate(0,0)" xlink:href="#pin-template"/>
				</g>
			</g>
		</g>
	</g>
</svg>