<?xml version="1.0" encoding="UTF-8"?>
<!DOCTYPE svg PUBLIC "-//W3C//DTD SVG 1.1//EN" "http://www.w3.org/Graphics/SVG/1.1/DTD/svg11.dtd">
<svg height="12in" version="1.1" viewBox="0 0 120 120" width="12in" xmlns="http://www.w3.org/2000/svg" xmlns:xlink="http://www.w3.org/1999/xlink">
	<defs>
		<circle cx="0" cy="0" fill="Red" id="led-template" r="7.5" stroke="#000000" stroke-width="1"/>
		<g id="row-led-template">
			<use transform="translate(0,0)" xlink:href="#led-template"/>
			<use transform="translate(15,0)" xlink:href="#led-template"/>
			<use transform="translate(30,0)" xlink:href="#led-template"/>
			<use transform="translate(45,0)" xlink:href="#led-template"/>
			<use transform="translate(60,0)" xlink:href="#led-template"/>
			<use transform="translate(75,0)" xlink:href="#led-template"/>
			<use transform="translate(90,0)" xlink:href="#led-template"/>
			<use transform="translate(105,0)" xlink:href="#led-template"/>
		</g>
		<circle cx="0" cy="0" id="pin-template" opacity="0" r="2.5"/>
		<rect height="5" id="1st-pin-template" opacity="0" width="5" x="-2.5" y="-2.5"/>
	</defs>
	<g id="breadboard">
		<g stroke="none">
			<rect fill="#000000" height="120" width="120" x="0" y="0"/>
			<g transform="translate(7.5,7.5)">
				<use transform="translate(0,0)" xlink:href="#row-led-template"/>
				<use transform="translate(0,15)" xlink:href="#row-led-template"/>
				<use transform="translate(0,30)" xlink:href="#row-led-template"/>
				<use transform="translate(0,45)" xlink:href="#row-led-template"/>
				<use transform="translate(0,60)" xlink:href="#row-led-template"/>
				<use transform="translate(0,75)" xlink:href="#row-led-template"/>
				<use transform="translate(0,90)" xlink:href="#row-led-template"/>
				<use transform="translate(0,105)" xlink:href="#row-led-template"/>
			</g>
			<g transform="translate(25,60)">
				<g transform="translate(0,45)">
					<use id="connector-R5-pin" transform="translate(0,0)" xlink:href="#1st-pin-template"/>
					<use id="connector-R7-pin" transform="translate(10,0)" xlink:href="#pin-template"/>
					<use id="connector-C2-pin" transform="translate(20,0)" xlink:href="#pin-template"/>
					<use id="connector-C3-pin" transform="translate(30,0)" xlink:href="#pin-template"/>
					<use id="connector-R8-pin" transform="translate(40,0)" xlink:href="#pin-template"/>
					<use id="connector-C5-pin" transform="translate(50,0)" xlink:href="#pin-template"/>
					<use id="connector-R6-pin" transform="translate(60,0)" xlink:href="#pin-template"/>
					<use id="connector-R3-pin" transform="translate(70,0)" xlink:href="#pin-template"/>
				</g>
				<g transform="translate(0,-45)">
					<use id="connector-R1-pin" transform="translate(70,0)" xlink:href="#pin-template"/>
					<use id="connector-C4-pin" transform="translate(60,0)" xlink:href="#pin-template"/>
					<use id="connector-C6-pin" transform="translate(50,0)" xlink:href="#pin-template"/>
					<use id="connector-R4-pin" transform="translate(40,0)" xlink:href="#pin-template"/>
					<use id="connector-C1-pin" transform="translate(30,0)" xlink:href="#pin-template"/>
					<use id="connector-R2-pin" transform="translate(20,0)" xlink:href="#pin-template"/>
					<use id="connector-C7-pin" transform="translate(10,0)" xlink:href="#pin-template"/>
					<use id="connector-C8-pin" transform="translate(0,0)" xlink:href="#pin-template"/>
				</g>
			</g>
		</g>
	</g>
</svg>