<?xml version="1.0" encoding="UTF-8"?>
<!DOCTYPE svg PUBLIC "-//W3C//DTD SVG 1.1//EN" "http://www.w3.org/Graphics/SVG/1.1/DTD/svg11.dtd">
<svg height="7in" version="1.1" viewBox="0 0 50 70" width="5in" xmlns="http://www.w3.org/2000/svg" xmlns:xlink="http://www.w3.org/1999/xlink">
	<defs>
		<circle cx="0" cy="0" id="pin-template" opacity="0" r="2.5"/>
		<rect height="5" id="1st-pin-template" opacity="0" width="5" x="-2.5" y="-2.5"/>
		<g id="7-segment-template">
			<g fill="Orange">
				<path d="m43.264 11.735 1.4896 2.9821-2.9779 16.392-2.9834 2.9765-2.9765-2.9765 2.9765-14.903z"/>
				<path d="m38.792 35.576 1.4924 2.9779-2.9793 16.392-2.9807 2.9793-2.9793-2.9793 2.9793-14.899z"/>
				<path d="m41.776 10.248-2.9838 4.4688h-19.368l-2.9765-4.469 1.4879-1.4884h22.349z"/>
			</g>
			<g fill="#888888">
				<path d="m7.5054 59.41 2.9807-4.4648h19.371l2.9779 4.469-1.4897 1.4883h-22.35z"/>
				<path d="m7.5054 38.554 2.9807-2.9779 2.9779 2.9779-2.9779 14.899-4.4731 4.4717-1.4868-2.9793z"/>
				<path d="m34.325 31.108 2.9807 2.9765-2.9807 2.9793h-19.37l-2.9793-2.9793 2.9793-2.9765z"/>
				<path d="m17.936 14.717-2.9807 14.902-4.469 4.4662-1.491-2.9765 2.9807-16.392 2.9793-2.9821z"/>
				<circle cx="41.137" cy="57.921" r="3.1382"/>
			</g>
		</g>
	</defs>
	<g id="breadboard">
		<g stroke="none">
			<rect fill="#000000" height="70" width="50" x="0" y="0"/>
			<g>
				<use transform="translate(0,0)" xlink:href="#7-segment-template"/>
			</g>
			<g transform="translate(5,35)">
				<g transform="translate(0,30)">
					<use id="connector-E-pin" transform="translate(0,0)" xlink:href="#1st-pin-template"/>
					<use id="connector-D-pin" transform="translate(10,0)" xlink:href="#pin-template"/>
					<use id="connector-1A-pin" transform="translate(20,0)" xlink:href="#pin-template"/>
					<use id="connector-C-pin" transform="translate(30,0)" xlink:href="#pin-template"/>
					<use id="connector-P-pin" transform="translate(40,0)" xlink:href="#pin-template"/>
				</g>
				<g transform="translate(0,-30)">
					<use id="connector-B-pin" transform="translate(40,0)" xlink:href="#pin-template"/>
					<use id="connector-A-pin" transform="translate(30,0)" xlink:href="#pin-template"/>
					<use id="connector-1B-pin" transform="translate(20,0)" xlink:href="#pin-template"/>
					<use id="connector-F-pin" transform="translate(10,0)" xlink:href="#pin-template"/>
					<use id="connector-G-pin" transform="translate(0,0)" xlink:href="#pin-template"/>
				</g>
			</g>
		</g>
	</g>
</svg>