<?xml version="1.0" encoding="UTF-8"?>
<!DOCTYPE svg PUBLIC "-//W3C//DTD SVG 1.1//EN" "http://www.w3.org/Graphics/SVG/1.1/DTD/svg11.dtd">
<svg height="5in" version="1.1" viewBox="0 0 10 50" width="1in" xmlns="http://www.w3.org/2000/svg" xmlns:xlink="http://www.w3.org/1999/xlink">
	<defs>
		<polygon id="pin-direction-template" points="-1.5,-1.5 1.5,-1.5 0.5,-0.5 -0.5,-0.5"/>
		<polygon id="hole-direction-template" points="-3,-3 3,-3 1.5,-1.5 -1.5,-1.5"/>
		<g id="male-pin-template" stroke="none">
			<polygon fill="#404040" points="-2,-5 2,-5 5,-2 5,2 2,5 -2,5 -5,2 -5,-2"/>
			<rect fill="#888866" height="3" width="3" x="-1.5" y="-1.5"/>
			<use fill="#BBBB88" transform="rotate(0)" xlink:href="#pin-direction-template"/>
			<use fill="#666644" transform="rotate(180)" xlink:href="#pin-direction-template"/>
			<use fill="#999966" transform="rotate(-90)" xlink:href="#pin-direction-template"/>
			<use fill="#777766" transform="rotate(90)" xlink:href="#pin-direction-template"/>
		</g>
		<g id="female-pin-template" stroke="none">
			<rect fill="#404040" height="10" width="10" x="-5" y="-5"/>
			<rect fill="#000000" height="6" width="6" x="-3" y="-3"/>
			<use fill="#222222" transform="rotate(0)" xlink:href="#hole-direction-template"/>
			<use fill="#555555" transform="rotate(180)" xlink:href="#hole-direction-template"/>
			<use fill="#333333" transform="rotate(-90)" xlink:href="#hole-direction-template"/>
			<use fill="#444444" transform="rotate(90)" xlink:href="#hole-direction-template"/>
		</g>
		<rect height="5" id="1st-pin-template" opacity="0" width="5" x="-2.5" y="-2.5"/>
		<circle cx="0" cy="0" id="pin-template" opacity="0" r="2.5"/>
	</defs>
	<g id="breadboard">
		<g stroke="none">
			<g transform="translate(5,45)">
				<g>
					<use transform="translate(0,0)" xlink:href="#female-pin-template"/>
					<use transform="translate(0,-10)" xlink:href="#female-pin-template"/>
					<use transform="translate(0,-20)" xlink:href="#female-pin-template"/>
					<use transform="translate(0,-30)" xlink:href="#female-pin-template"/>
					<use transform="translate(0,-40)" xlink:href="#female-pin-template"/>
				</g>
				<g>
					<use id="connector-R0-C0-pin" transform="translate(0,0)" xlink:href="#1st-pin-template"/>
					<use id="connector-R1-C0-pin" transform="translate(0,-10)" xlink:href="#pin-template"/>
					<use id="connector-R2-C0-pin" transform="translate(0,-20)" xlink:href="#pin-template"/>
					<use id="connector-R3-C0-pin" transform="translate(0,-30)" xlink:href="#pin-template"/>
					<use id="connector-R4-C0-pin" transform="translate(0,-40)" xlink:href="#pin-template"/>
				</g>
			</g>
		</g>
	</g>
</svg>