<?xml version="1.0" encoding="UTF-8"?>
<!DOCTYPE svg PUBLIC "-//W3C//DTD SVG 1.1//EN" "http://www.w3.org/Graphics/SVG/1.1/DTD/svg11.dtd">
<svg height="1in" version="1.1" viewBox="0 0 270 10" width="27in" xmlns="http://www.w3.org/2000/svg" xmlns:xlink="http://www.w3.org/1999/xlink">
	<defs>
		<polygon id="pin-direction-template" points="-1.5,-1.5 1.5,-1.5 0.5,-0.5 -0.5,-0.5"/>
		<polygon id="hole-direction-template" points="-3,-3 3,-3 1.5,-1.5 -1.5,-1.5"/>
		<g id="male-pin-template" stroke="none">
			<polygon fill="#404040" points="-2,-5 2,-5 5,-2 5,2 2,5 -2,5 -5,2 -5,-2"/>
			<rect fill="#888866" height="3" width="3" x="-1.5" y="-1.5"/>
			<use fill="#BBBB88" transform="rotate(0)" xlink:href="#pin-direction-template"/>
			<use fill="#666644" transform="rotate(180)" xlink:href="#pin-direction-template"/>
			<use fill="#999966" transform="rotate(-90)" xlink:href="#pin-direction-template"/>
			<use fill="#777766" transform="rotate(90)" xlink:href="#pin-direction-template"/>
		</g>
		<g id="female-pin-template" stroke="none">
			<rect fill="#404040" height="10" width="10" x="-5" y="-5"/>
			<rect fill="#000000" height="6" width="6" x="-3" y="-3"/>
			<use fill="#222222" transform="rotate(0)" xlink:href="#hole-direction-template"/>
			<use fill="#555555" transform="rotate(180)" xlink:href="#hole-direction-template"/>
			<use fill="#333333" transform="rotate(-90)" xlink:href="#hole-direction-template"/>
			<use fill="#444444" transform="rotate(90)" xlink:href="#hole-direction-template"/>
		</g>
		<rect height="5" id="1st-pin-template" opacity="0" width="5" x="-2.5" y="-2.5"/>
		<circle cx="0" cy="0" id="pin-template" opacity="0" r="2.5"/>
	</defs>
	<g id="breadboard">
		<g stroke="none">
			<g transform="translate(5,5)">
				<g>
					<use transform="translate(0,0)" xlink:href="#male-pin-template"/>
					<use transform="translate(10,0)" xlink:href="#male-pin-template"/>
					<use transform="translate(20,0)" xlink:href="#male-pin-template"/>
					<use transform="translate(30,0)" xlink:href="#male-pin-template"/>
					<use transform="translate(40,0)" xlink:href="#male-pin-template"/>
					<use transform="translate(50,0)" xlink:href="#male-pin-template"/>
					<use transform="translate(60,0)" xlink:href="#male-pin-template"/>
					<use transform="translate(70,0)" xlink:href="#male-pin-template"/>
					<use transform="translate(80,0)" xlink:href="#male-pin-template"/>
					<use transform="translate(90,0)" xlink:href="#male-pin-template"/>
					<use transform="translate(100,0)" xlink:href="#male-pin-template"/>
					<use transform="translate(110,0)" xlink:href="#male-pin-template"/>
					<use transform="translate(120,0)" xlink:href="#male-pin-template"/>
					<use transform="translate(130,0)" xlink:href="#male-pin-template"/>
					<use transform="translate(140,0)" xlink:href="#male-pin-template"/>
					<use transform="translate(150,0)" xlink:href="#male-pin-template"/>
					<use transform="translate(160,0)" xlink:href="#male-pin-template"/>
					<use transform="translate(170,0)" xlink:href="#male-pin-template"/>
					<use transform="translate(180,0)" xlink:href="#male-pin-template"/>
					<use transform="translate(190,0)" xlink:href="#male-pin-template"/>
					<use transform="translate(200,0)" xlink:href="#male-pin-template"/>
					<use transform="translate(210,0)" xlink:href="#male-pin-template"/>
					<use transform="translate(220,0)" xlink:href="#male-pin-template"/>
					<use transform="translate(230,0)" xlink:href="#male-pin-template"/>
					<use transform="translate(240,0)" xlink:href="#male-pin-template"/>
					<use transform="translate(250,0)" xlink:href="#male-pin-template"/>
					<use transform="translate(260,0)" xlink:href="#male-pin-template"/>
				</g>
				<g>
					<use id="connector-R0-C0-pin" transform="translate(0,0)" xlink:href="#1st-pin-template"/>
					<use id="connector-R0-C1-pin" transform="translate(10,0)" xlink:href="#pin-template"/>
					<use id="connector-R0-C2-pin" transform="translate(20,0)" xlink:href="#pin-template"/>
					<use id="connector-R0-C3-pin" transform="translate(30,0)" xlink:href="#pin-template"/>
					<use id="connector-R0-C4-pin" transform="translate(40,0)" xlink:href="#pin-template"/>
					<use id="connector-R0-C5-pin" transform="translate(50,0)" xlink:href="#pin-template"/>
					<use id="connector-R0-C6-pin" transform="translate(60,0)" xlink:href="#pin-template"/>
					<use id="connector-R0-C7-pin" transform="translate(70,0)" xlink:href="#pin-template"/>
					<use id="connector-R0-C8-pin" transform="translate(80,0)" xlink:href="#pin-template"/>
					<use id="connector-R0-C9-pin" transform="translate(90,0)" xlink:href="#pin-template"/>
					<use id="connector-R0-C10-pin" transform="translate(100,0)" xlink:href="#pin-template"/>
					<use id="connector-R0-C11-pin" transform="translate(110,0)" xlink:href="#pin-template"/>
					<use id="connector-R0-C12-pin" transform="translate(120,0)" xlink:href="#pin-template"/>
					<use id="connector-R0-C13-pin" transform="translate(130,0)" xlink:href="#pin-template"/>
					<use id="connector-R0-C14-pin" transform="translate(140,0)" xlink:href="#pin-template"/>
					<use id="connector-R0-C15-pin" transform="translate(150,0)" xlink:href="#pin-template"/>
					<use id="connector-R0-C16-pin" transform="translate(160,0)" xlink:href="#pin-template"/>
					<use id="connector-R0-C17-pin" transform="translate(170,0)" xlink:href="#pin-template"/>
					<use id="connector-R0-C18-pin" transform="translate(180,0)" xlink:href="#pin-template"/>
					<use id="connector-R0-C19-pin" transform="translate(190,0)" xlink:href="#pin-template"/>
					<use id="connector-R0-C20-pin" transform="translate(200,0)" xlink:href="#pin-template"/>
					<use id="connector-R0-C21-pin" transform="translate(210,0)" xlink:href="#pin-template"/>
					<use id="connector-R0-C22-pin" transform="translate(220,0)" xlink:href="#pin-template"/>
					<use id="connector-R0-C23-pin" transform="translate(230,0)" xlink:href="#pin-template"/>
					<use id="connector-R0-C24-pin" transform="translate(240,0)" xlink:href="#pin-template"/>
					<use id="connector-R0-C25-pin" transform="translate(250,0)" xlink:href="#pin-template"/>
					<use id="connector-R0-C26-pin" transform="translate(260,0)" xlink:href="#pin-template"/>
				</g>
			</g>
		</g>
	</g>
</svg>