<?xml version="1.0" encoding="UTF-8"?>
<!DOCTYPE svg PUBLIC "-//W3C//DTD SVG 1.1//EN" "http://www.w3.org/Graphics/SVG/1.1/DTD/svg11.dtd">
<svg xmlns="http://www.w3.org/2000/svg" version="1.2" width="0.42917in" height="0.0971in" viewBox="0 0 429.17 97.1" baseProfile="tiny">
	<g id="breadboard">
		<g fill="none" transform="translate(0,35.9)">
			<rect id="connector-0-pin" x="5" y="0" width="10" height="10"/>
			<rect id="connector-1-pin" x="414.17" y="0" width="10" height="10"/>
			<g stroke="#8C8C8C" transform="translate(14.55,14.55)">
				<g stroke-linecap="round">
					<line id="connector-0-leg" x1="0" y1="0" x2="14.55" y2="0" stroke-width="29.1"/>
					<line id="connector-1-leg" x1="400.07" y1="0" x2="385.52" y2="0" stroke-width="29.1"/>
				</g>
				<line x1="0" y1="0" x2="400.07" y2="0" stroke-width="29.1"/>
			</g>
		</g>
		<g>
			<path id="body" fill="#D9B477" d="m 142.33,6.88 c -5,-2.3 -13.6,-4.1 -19.1,-4.1 h -27.6 c -5.5,0 -10,4.5 -10,10 v 74.39 c 0,5.51 4.5,10 10,10 h 27.6 c 5.5,0 14.1,-1.89 19.1,-4.1 l 1,-0.49 c 5,-2.3 13.6,-4.1 19.1,-4.1 h 99.8 c 5.51,0 14.09,1.89 19.09,4.1 l 1.01,0.49 c 5,2.3 13.58,4.1 19.1,4.1 h 27.6 c 5.52,0 10,-4.49 10,-10 l 0,-74.39 c 0,-5.5 -4.48,-10 -10,-10 h -27.6 c -5.52,0 -14.1,1.9 -19.1,4.1 l -1.01,0.5 c -5,2.3 -13.58,4.1 -19.09,4.1 h -99.8 c -5.5,0 -14.1,-1.9 -19.1,-4.1 z"/>
			<path id="band_1_st" fill="#00008A" d="M147.62,8.88c-1.6,-0.5,-3.1,-1,-4.3,-1.6l-1,-0.5c-5,-2.29,-13.6,-4.1,-19.1,-4.1l-1.2,0l0,94.39l1.2,0c5.5,0,14.1,-1.89,19.1,-4.1l1,-0.49c1.2,-0.62,2.7,-1.11,4.3,-1.6L147.62,8.88z"/>
			<rect id="band_2_nd" fill="#888888" x="173.23" y="11.48" width="25.7" height="76.9"/>
			<rect id="band_3_rd" fill="#FF00FF" x="224.62" y="11.48" width="25.7" height="76.9"/>
			<rect id="band_4_th" fill="#ad9f4e" x="305.82" y="2.69" width="9.76" height="94.38"/>
			<g opacity="0.3">
				<path id="Shadow" d="m 329.32,56.8 v 0 c 0,5.27 -1.81,9.71 -4.1,9.71 h -26.7 c -5.28,0 -13.58,-0.78 -18.51,-1.7 L 279,64.59 c -4.79,-0.9 -13.18,-1.7 -18.52,-1.7 H 164 c -5.3,0 -13.6,0.8 -18.5,1.7 l -1,0.21 c -4.8,0.91 -13.1,1.7 -18.5,1.7 h -4.4 -13.9 -4.3 c -5.3,0 -9.7,4.08 -9.7,8.96 v 3.43 l 0,2.21 v 2.4 c 0,5 4.4,8.96 9.7,8.96 h 22.5 c 5.3,0 13.6,-1.7 18.5,-3.71 l 1,-0.39 c 4.8,-1.96 13.2,-3.68 18.5,-3.68 h 96.48 c 5.27,0 13.57,1.72 18.53,3.69 l 1.03,0.39 c 4.79,2.01 13.12,3.71 18.52,3.71 h 30.9 c 5.29,0 9.71,-4.1 9.71,-8.96 l 0,-7.51 V 62.49 36.88 c -3.85,1.5 -9.75,5.7 -9.75,19.92 z"/>
				<rect id="ShadowExtra" x="305.82" y="48.38" width="9.76" height="43.79"/>
			</g>
			<g opacity="0.4">
				<path id="ReflexRight" fill="#FFFFFF" d="m 274.32,15.08 c 3.19,0 6.82,-1.4 9.2,-2.4 2.8,-1.1 8.01,-2 13.42,-2 h 20.29 c 3.12,0 3.12,3.4 3.12,5.2 0,1.8 -0.21,5.3 -3.12,5.3 h -42.5 c -1.49,0 -3.2,-1.6 -3.2,-3.11 0.09,-1.19 1.09,-2.99 2.79,-2.99 z"/>
				<circle id="ReflexLeft" fill="#FFFFFF" cx="97.22" cy="15.78" r="6"/>
			</g>
			<g opacity="0.5">
				<rect id="Reflex_gold" fill="#FFFF33" x="305.82" y="5.88" width="9.76" height="22.5"/>
				<rect id="Reflex_extra" fill="#FFFFFF" x="305.82" y="10.88" width="9.76" height="10.4"/>
			</g>
		</g>
	</g>
</svg>