<?xml version="1.0" encoding="UTF-8"?>
<!DOCTYPE svg PUBLIC "-//W3C//DTD SVG 1.1//EN" "http://www.w3.org/Graphics/SVG/1.1/DTD/svg11.dtd">
<svg height="4in" version="1.1" viewBox="0 0 50 40" width="5in" xmlns="http://www.w3.org/2000/svg" xmlns:xlink="http://www.w3.org/1999/xlink">
	<defs>
		<polygon id="direction-template" points="-1.5,-1.5 1.5,-1.5 0.5,-0.5 -0.5,-0.5"/>
		<g id="pin-template" stroke="none">
			<rect fill="#AAAA60" height="3" width="3" x="-1.5" y="-1.5"/>
			<use fill="#888860" xlink:href="#direction-template"/>
			<use fill="#777760" transform="rotate(90)" xlink:href="#direction-template"/>
			<use fill="#999960" transform="rotate(180)" xlink:href="#direction-template"/>
			<use fill="#BBBB60" transform="rotate(-90)" xlink:href="#direction-template"/>
		</g>
		<rect height="1.6" id="icon-pin-template" width="1.8" x="-0.9" y="-0.8"/>
	</defs>
	<g id="breadboard">
		<g stroke="none">
			<rect fill="#004400" height="40" width="50" x="0" y="0"/>
			<g transform="translate(5,20)">
				<g transform="translate(0,15)">
					<use id="connector-SBL.GND-pin" transform="translate(0,0)" xlink:href="#pin-template"/>
					<use id="connector-SFL.GND-pin" transform="translate(10,0)" xlink:href="#pin-template"/>
					<use id="connector-SFR.GND-pin" transform="translate(30,0)" xlink:href="#pin-template"/>
					<use id="connector-SBR.GND-pin" transform="translate(40,0)" xlink:href="#pin-template"/>
				</g>
				<g transform="translate(0,-15)">
					<use id="connector-VCC-pin" transform="translate(40,0)" xlink:href="#pin-template"/>
					<use id="connector-D--pin" transform="translate(30,0)" xlink:href="#pin-template"/>
					<use id="connector-D+-pin" transform="translate(20,0)" xlink:href="#pin-template"/>
					<use id="connector-ID-pin" transform="translate(10,0)" xlink:href="#pin-template"/>
					<use id="connector-GND-pin" transform="translate(0,0)" xlink:href="#pin-template"/>
				</g>
			</g>
		</g>
		<g stroke="#000000" stroke-width="0.5" transform="translate(8,11)">
			<polygon fill="#BBBBBB" points="0,0 34,0 34,7 31.5,11 31.5,18 2.5,18 2.5,11 0,7"/>
			<polygon fill="#888888" points="2,2 32,2 32,6.5 29.5,10.5 29.5,16 4.5,16 4.5,10.5 2,6.5"/>
			<polygon fill="#000000" points="6.5,6 27.5,6 27.5,11 24.5,14 9.5,14 6.5,11"/>
			<g fill="#FFFF00" transform="translate(17,6)">
				<use transform="translate(-8,0)" xlink:href="#icon-pin-template"/>
				<use transform="translate(-4,0)" xlink:href="#icon-pin-template"/>
				<use transform="translate(0,0)" xlink:href="#icon-pin-template"/>
				<use transform="translate(4,0)" xlink:href="#icon-pin-template"/>
				<use transform="translate(8,0)" xlink:href="#icon-pin-template"/>
			</g>
		</g>
	</g>
</svg>