<?xml version="1.0" encoding="UTF-8"?>
<!DOCTYPE svg PUBLIC "-//W3C//DTD SVG 1.1//EN" "http://www.w3.org/Graphics/SVG/1.1/DTD/svg11.dtd">
<svg xmlns="http://www.w3.org/2000/svg" version="1.2" width="0.7in" height="0.5in" viewBox="0 0 70 50">
	<g id="silkscreen">
		<rect fill="none" stroke="#FFFFFF" stroke-width="1" x="0" y="0" width="70" height="50"/>
	</g>
	<g id="copper0">
		<g id="copper1">
			<g transform="translate(35,0)" stroke="#FFBF00" fill="none">
				<g transform="translate(0,6.25)">
					<g transform="translate(1.5625,0)">
						<rect id="square" x="17.1875" y="-1.5625" width="3.125" height="3.125" stroke-width="0.78125"/>
						<circle id="connector-0-pad" cx="18.75" cy="0" r="1.5625" stroke-width="0.78125"/>
						<circle id="connector-2-pad" cx="12.5" cy="0" r="1.5625" stroke-width="0.78125"/>
						<circle id="connector-6-pad" cx="6.25" cy="0" r="1.5625" stroke-width="0.78125"/>
						<circle id="connector-8-pad" cx="0" cy="0" r="1.5625" stroke-width="0.78125"/>
						<circle id="connector-12-pad" cx="-6.25" cy="0" r="1.5625" stroke-width="0.78125"/>
						<circle id="connector-14-pad" cx="-12.5" cy="0" r="1.5625" stroke-width="0.78125"/>
						<circle id="connector-18-pad" cx="-18.75" cy="0" r="1.5625" stroke-width="0.78125"/>
					</g>
					<g transform="translate(-1.5625,6.25)">
						<circle id="connector-1-pad" cx="18.75" cy="0" r="1.5625" stroke-width="0.78125"/>
						<circle id="connector-4-pad" cx="12.5" cy="0" r="1.5625" stroke-width="0.78125"/>
						<circle id="connector-7-pad" cx="6.25" cy="0" r="1.5625" stroke-width="0.78125"/>
						<circle id="connector-10-pad" cx="0" cy="0" r="1.5625" stroke-width="0.78125"/>
						<circle id="connector-13-pad" cx="-6.25" cy="0" r="1.5625" stroke-width="0.78125"/>
						<circle id="connector-16-pad" cx="-12.5" cy="0" r="1.5625" stroke-width="0.78125"/>
					</g>
					<g transform="translate(1.5625,12.5)">
						<circle id="connector-3-pad" cx="12.5" cy="0" r="1.5625" stroke-width="0.78125"/>
						<circle id="connector-5-pad" cx="6.25" cy="0" r="1.5625" stroke-width="0.78125"/>
						<circle id="connector-9-pad" cx="0" cy="0" r="1.5625" stroke-width="0.78125"/>
						<circle id="connector-11-pad" cx="-6.25" cy="0" r="1.5625" stroke-width="0.78125"/>
						<circle id="connector-15-pad" cx="-12.5" cy="0" r="1.5625" stroke-width="0.78125"/>
						<circle id="connector-17-pad" cx="-18.75" cy="0" r="1.5625" stroke-width="0.78125"/>
					</g>
				</g>
				<g transform="translate(0,31.25)">
					<circle fill="#000000" cx="0" cy="0" r="3.125" stroke-width="0"/>
				</g>
				<g transform="translate(0,37.5)">
					<circle fill="#000000" cx="28.125" cy="0" r="3.125" stroke-width="0"/>
					<circle fill="#000000" cx="-28.125" cy="0" r="3.125" stroke-width="0"/>
				</g>
				<g transform="translate(0,12.5)">
					<circle fill="#000000" cx="28.125" cy="0" r="6.25" stroke-width="0"/>
					<circle fill="#000000" cx="-28.125" cy="0" r="6.25" stroke-width="0"/>
				</g>
			</g>
		</g>
	</g>
</svg>