<?xml version="1.0" encoding="UTF-8"?>
<!DOCTYPE svg PUBLIC "-//W3C//DTD SVG 1.1//EN" "http://www.w3.org/Graphics/SVG/1.1/DTD/svg11.dtd">
<svg version="1.2" xmlns="http://www.w3.org/2000/svg" width="0.5625in" height="0.1875in" viewBox="0 0 56.25 18.75">
	<g id="icon">
		<g stroke="#000000" stroke-width="0.3125">
			<polygon fill="#FFFFFF" points="0,0 0,14 10,18.75 46.25,18.75 56.25,14 56.25,0"/>
			<polygon fill="#888888" points="7,8 7,10 9.5,11 46.75,11 49.25,10 49.25,8"/>
			<g transform="translate(27.125,0)" fill="#FFFF00" font-size="1" font-family="OCRA std" text-anchor="middle">
				<g transform="translate(0,7.5)">
					<rect x="18" y="0" width="2" height="1"/>
					<rect x="14" y="0" width="2" height="1"/>
					<rect x="10" y="0" width="2" height="1"/>
					<rect x="6" y="0" width="2" height="1"/>
					<rect x="2" y="0" width="2" height="1"/>
					<rect x="-2" y="0" width="2" height="1"/>
					<rect x="-6" y="0" width="2" height="1"/>
					<rect x="-10" y="0" width="2" height="1"/>
					<rect x="-14" y="0" width="2" height="1"/>
					<rect x="-18" y="0" width="2" height="1"/>
					<g transform="translate(1,-0.6)" fill="#000000" stroke="none">
						<text x="18" y="0">1</text>
						<text x="14" y="0">3</text>
						<text x="10" y="0">5</text>
						<text x="6" y="0">7</text>
						<text x="2" y="0">9</text>
						<text x="-2" y="0">11</text>
						<text x="-6" y="0">13</text>
						<text x="-10" y="0">15</text>
						<text x="-14" y="0">17</text>
						<text x="-18" y="0">19</text>
					</g>
				</g>
				<g transform="translate(0,10.5)">
					<rect x="16" y="0" width="2" height="1"/>
					<rect x="12" y="0" width="2" height="1"/>
					<rect x="8" y="0" width="2" height="1"/>
					<rect x="4" y="0" width="2" height="1"/>
					<rect x="0" y="0" width="2" height="1"/>
					<rect x="-4" y="0" width="2" height="1"/>
					<rect x="-8" y="0" width="2" height="1"/>
					<rect x="-12" y="0" width="2" height="1"/>
					<rect x="-16" y="0" width="2" height="1"/>
					<g transform="translate(1,2.4)" fill="#000000" stroke="none">
						<text x="16" y="0">2</text>
						<text x="12" y="0">4</text>
						<text x="8" y="0">6</text>
						<text x="4" y="0">8</text>
						<text x="0" y="0">10</text>
						<text x="-4" y="0">12</text>
						<text x="-8" y="0">14</text>
						<text x="-12" y="0">16</text>
						<text x="-16" y="0">18</text>
					</g>
				</g>
			</g>
		</g>
	</g>
</svg>