<?xml version="1.0" encoding="UTF-8"?>
<!DOCTYPE svg PUBLIC "-//W3C//DTD SVG 1.1//EN" "http://www.w3.org/Graphics/SVG/1.1/DTD/svg11.dtd">
<svg xmlns="http://www.w3.org/2000/svg" version="1.2" width="0.409722in" height="0.086in" viewBox="0 0 10.4069 2.1844" baseProfile="tiny">
	<g id="schematic">
		<g transform="translate(2.66347,0.0762)" fill="none" stroke="#000000" stroke-linecap="round" stroke-width="0.1524">
			<polyline points="0,1.016 0.381,0 1.016,2.032 1.651,0 2.286,2.032 2.921,0 3.556,2.032 4.191,0 4.826,2.032 5.08,1.016"/>
		</g>
		<!--
		<text x="5.20345" y="1.5422" font-size="1.2" font-family="OCRA std" stroke-width="0" fill="#8c8c8c" text-anchor="middle">${RESISTANCE}</text>
		-->
		<g transform="translate(0.1235,1.0922)" stroke="#787878" stroke-linecap="round" stroke-width="0.246944">
			<line id="connector-0-pin" x1="0" y1="0" x2="2.54" y2="0"/>
			<line id="connector-1-pin" x1="10.16" y1="0" x2="7.62" y2="0"/>
		</g>
		<g stroke="none">
			<g transform="translate(0.1235,1.0922)" fill="none" stroke-width="0">
				<rect id="connector-0-terminal" x="0" y="0" width="0.0001" height="0.0001"/>
				<rect id="connector-1-terminal" x="10.16" y="0" width="0.0001" height="0.0001"/>
			</g>
			<g transform="translate(1.3935,0.7218)" text-anchor="middle" fill="#8c8c8c" stroke-width="0" font-size="0.881944" font-family="OCRA std">
				<text x="0" y="0">1</text>
				<text x="7.62" y="0">2</text>
			</g>
		</g>
	</g>
</svg>